BDI_ITEM_NO ,  BL_NUMBER ,  BLC_CONTAINER ,  BLC_CONTTYPE ,  CUSTOMER_CODE ,  CUSTOMER_NAME ,  VESSEL_NAME ,  BL_VOYAGE ,  VOYAGE_ETA ,  BLC_RETURN_DEPOT ,  CUSTOMER_PHONE ,  CUS_EMAIL ,  BLC_SHORT_DESCRIPTION ,  FREE_DAYS ,  FCL_VALIDITY 
01 , MEDUSY493059 , GLDU3378000 , 20DV , E00228 , EMBILIPITIYA TOOL MAKERS (PVT) LTD , CONTI CORTESIA , FK034A , 04/09/0020 , REL_JCT ,  , EMBILIPITIYATOOLMAKERS@GMAIL.COM , HYDROXYPROPYL METHYL CELLULOSE , 14 , 18/09/0020
02 , MEDUDA883880 , FTAU1392837 , 20DV , W00435 , WHEEL MASTERS (PVT) LTD , CONTI CORTESIA , FK034A , 04/09/0020 , REL_JCT , 0094254928540 , info@wheelmasters.biz , SEEDER , 7 , 11/09/0020
03 , MEDUFU001162 , MSCU4741461 , 40DV , P00332 , PRIME STAR TRADING PVT LTD , CONTI CORTESIA , FK034A , 04/09/0020 , REL_LKSIL , 2434500 , anuradha@gfm.lk , GIFT WRAP PAPER , 7 , 11/09/0020
03 , MEDUFU001162 , MSDU7735213 , 40HC , P00332 , PRIME STAR TRADING PVT LTD , CONTI CORTESIA , FK034A , 04/09/0020 , REL_LKSIL , 2434500 , anuradha@gfm.lk , GIFT WRAP PAPER , 7 , 11/09/0020
03 , MEDUFU001162 , MSCU5521501 , 40DV , P00332 , PRIME STAR TRADING PVT LTD , CONTI CORTESIA , FK034A , 04/09/0020 , REL_LKSIL , 2434500 , anuradha@gfm.lk , GIFT WRAP PAPER , 7 , 11/09/0020
03 , MEDUFU001162 , MSCU4784740 , 40DV , P00332 , PRIME STAR TRADING PVT LTD , CONTI CORTESIA , FK034A , 04/09/0020 , REL_LKSIL , 2434500 , anuradha@gfm.lk , GIFT WRAP PAPER , 7 , 11/09/0020
03 , MEDUFU001162 , MEDU4794909 , 40HC , P00332 , PRIME STAR TRADING PVT LTD , CONTI CORTESIA , FK034A , 04/09/0020 , REL_LKSIL , 2434500 , anuradha@gfm.lk , GIFT WRAP PAPER , 7 , 11/09/0020
03 , MEDUFU001162 , MEDU4291550 , 40DV , P00332 , PRIME STAR TRADING PVT LTD , CONTI CORTESIA , FK034A , 04/09/0020 , REL_LKSIL , 2434500 , anuradha@gfm.lk , BOOTS , 7 , 11/09/0020
04 , MEDUSY628944 , MSDU1489581 , 20DV , A00679 , ALFT PACKAGING COMPANY (PVT) LTD , CONTI CORTESIA , FK034A , 04/09/0020 , REL_JCT , 94703222201 , upulpushpakumara881@gmail.com , ETHYL ACETATE , 14 , 18/09/0020
05 , MEDUSY630049 , MSDU1490221 , 20DV , A00679 , ALFT PACKAGING COMPANY (PVT) LTD , CONTI CORTESIA , FK034A , 04/09/0020 , REL_JCT , 94703222201 , upulpushpakumara881@gmail.com , N-PROPYL ACETATE , 14 , 18/09/0020
06 , MEDUN8934204 , MEDU6739330 , 20DV , S00956 , S.A.H. TRADING , CONTI CORTESIA , FK034A , 04/09/0020 , REL_LKSIL , 00941433458336499 , sahtrading@yahoo.com , 100% RAYON FABRIC 57/58" , 14 , 18/09/0020
07 , MEDUN8934196 , MEDU6104279 , 20DV , F00236 , FAWAZ TEXTILE STORES , CONTI CORTESIA , FK034A , 04/09/0020 , REL_LKSIL , 94112570060 , MNMFAWAZ95@GMAIL.COM , 100% RAYON FABRIC 57/58" , 14 , 18/09/0020
08 , MEDUN8967881 , FTAU1545659 , 20DV , F00236 , FAWAZ TEXTILE STORES , CONTI CORTESIA , FK034A , 04/09/0020 , REL_LKSIL , 94112570060 , MNMFAWAZ95@GMAIL.COM , 100% RAYON FABRIC 57/58" , 14 , 18/09/0020
09 , MEDUN8967873 , FTAU1538393 , 20DV , S00956 , S.A.H. TRADING , CONTI CORTESIA , FK034A , 04/09/0020 , REL_LKSIL , 00941433458336499 , sahtrading@yahoo.com , 100% RAYON FABRIC 57/58" , 14 , 18/09/0020
10 , MEDUN8856217 , FTAU1532918 , 20DV , S00956 , S.A.H. TRADING , CONTI CORTESIA , FK034A , 04/09/0020 , REL_LKSIL , 00941433458336499 , sahtrading@yahoo.com , 100% RAYON FABRIC 57/58" , 14 , 18/09/0020
100 , MEDUQ3186275 , MSDU7922256 , 40HC , U00203 , UNITED MERCURY GROUP LANKA (PVT) LTD , CONTI CORTESIA , FK034A , 04/09/0020 , REL_LKSIL , 0094112144100 , lanka@umgroup.com , TWO UNITS SHANTUI MC10 ROAD ROLLER AND STANDARD AC , 14 , 18/09/0020
100 , MEDUQ3186275 , MSDU7916119 , 40HC , U00203 , UNITED MERCURY GROUP LANKA (PVT) LTD , CONTI CORTESIA , FK034A , 04/09/0020 , REL_LKSIL , 0094112144100 , lanka@umgroup.com , FOUR UNITS SHANTUI MC04 ROAD ROLLER AND STANDARD A , 14 , 18/09/0020
101 , MEDUQ3218763 , CAIU2557960 , 20DV , S01172 , SINADI DISTRIBUTORS. , CONTI CORTESIA , FK034A , 04/09/0020 , REL_LKLIS , 94777421970 , sinadidistributors7@gmail.com , ALUMINUM COMPOSITE PANEL , 7 , 11/09/0020
102 , MEDUQ3158928 , FCIU5771269 , 20DV , M00058 , MACKSONS PAINTS LANKA (PVT) LTD , CONTI CORTESIA , FK034A , 04/09/0020 , REL_LKLIS , 94115530225 , logistics@multilac.com , PENTAERYTHRITOL , 14 , 18/09/0020
103 , MEDUQ3184916 , MEDU7429983 , 40HC , C00721 , CEILAO FORTUNE (PVT) LTD , CONTI CORTESIA , FK034A , 04/09/0020 , REL_LKSIL , 94777595020 , ceilaofortune@gmail.com , WHEELBARROW BUCKETS , 14 , 18/09/0020
104 , MEDUQ3184189 , MEDU1074253 , 20DV , M00040 , MCCALLUM CARGO (PVT) LTD , CONTI CORTESIA , FK034A , 04/09/0020 , REL_LKLIS , 94115561000 , export1@mccallum.lk , ALUMINIUM COMPOSITE PANEL , 14 , 18/09/0020
105 , MEDUQ3151717 , MSDU7931129 , 40HC , A00051 , ACE CARGO (PVT) LTD , CONTI CORTESIA , FK034A , 04/09/0020 , REL_LKSIL ,  , sea.inward@acecargo.lk , 50M 3 LEGGED ANGULAR , 14 , 18/09/0020
106 , MEDUQ3150537 , TGBU5611311 , 40HC , A00203 , ASIABIKE INDUSTRIAL LTD , CONTI CORTESIA , FK034A , 04/09/0020 , REL_LKSIL , 0382232327 , AADIL@ASIABIKE.LK ,  , 14 , 18/09/0020
107 , MEDUQ3206834 , MSDU7930586 , 40HC , G00145 , GLOBAL CARGO SOLUTIONS (PVT) LTD , CONTI CORTESIA , FK034A , 04/09/0020 , REL_LKSIL , 94115761070 , doc@globalcmb.com , FABRIC CARPET , 14 , 18/09/0020
107 , MEDUQ3206834 , MSDU7926164 , 40HC , G00145 , GLOBAL CARGO SOLUTIONS (PVT) LTD , CONTI CORTESIA , FK034A , 04/09/0020 , REL_LKSIL , 94115761070 , doc@globalcmb.com , FABRIC CARPET , 14 , 18/09/0020
108 , MEDUQ3146550 , FCIU4485023 , 20DV , A00550 , ANDRY ALUMINIUM INDUSTRY (PVT) LTD , CONTI CORTESIA , FK034A , 04/09/0020 , REL_LKSIL , 940117209761 , andryindustry@gmail.com , ALUMINIUM COIL IN FOIL FOAM (ALUMINIUM FOIL ROLLS) , 14 , 18/09/0020
109 , MEDUQ3197322 , FFAU1922502 , 40HC , N00316 , NIMTHARA PRINTERS , CONTI CORTESIA , FK034A , 04/09/0020 , REL_LKSIL , 94112341775 , rexcy@jripl.com , NCR PAPER , 14 , 18/09/0020
11 , MEDUN8828091 , TTNU4612168 , 40DV , C00084 , CARGOSERV SHIPPING LTD , CONTI CORTESIA , FK034A , 04/09/0020 , REL_LKSIL , 4511012-17 , inward@cargoserv.lk , C1S IVORY BOARD(NINGBO FOLD) , 21 , 25/09/0020
110 , MEDUQ3170170 , MEDU4607253 , 40HC , N00368 , NORWOOD FASHIONS (PVT) LTD , CONTI CORTESIA , FK034A , 04/09/0020 , REL_LKSIL , 94112944700 , info@norwoodfashions.com , FABRIC , 14 , 18/09/0020
111 , MEDUQ3141148 , TGBU2758720 , 20DV , U00004 , UNILEVER SRI LANKA LTD , CONTI CORTESIA , FK034A , 04/09/0020 , REL_JCT ,  , Harsha.Abesekara@unilever.com , SORBITOL 70% , 14 , 18/09/0020
111 , MEDUQ3141148 , TGBU2759603 , 20DV , U00004 , UNILEVER SRI LANKA LTD , CONTI CORTESIA , FK034A , 04/09/0020 , REL_JCT ,  , Harsha.Abesekara@unilever.com , SORBITOL 70% , 14 , 18/09/0020
112 , MEDUQ3082425 , TGBU7187590 , 40HC , A00557 , ASIAN TYRES PVT. LTD. , CONTI CORTESIA , FK034A , 04/09/0020 , REL_LKSIL , 949051314848 , saurav.saket@rp-sg.in , HMLS POLYESTER TYRE CORD FABRIC , 14 , 18/09/0020
113 , MEDUQ3063524 , MEDU4028159 , 40DV , D00087 , DOLLAR CORPORATION , CONTI CORTESIA , FK034A , 04/09/0020 , REL_LKSIL , 0094112433555 , dollar@sltnet.lk , ISO PROPYL ALCOHOL,PURITY 99.8PCT MIN , 0 , 04/09/0020
113 , MEDUQ3063524 , MEDU4051797 , 40DV , D00087 , DOLLAR CORPORATION , CONTI CORTESIA , FK034A , 04/09/0020 , REL_LKSIL , 0094112433555 , dollar@sltnet.lk , ISO PROPYL ALCOHOL,PURITY 99.8PCT MIN , 0 , 04/09/0020
114 , MEDUQ3062179 , MEDU4144502 , 40DV , D00087 , DOLLAR CORPORATION , CONTI CORTESIA , FK034A , 04/09/0020 , REL_LKSIL , 0094112433555 , dollar@sltnet.lk , ISO PROPYL ALCOHOL,PURITY 99.8PCT MIN , 0 , 04/09/0020
114 , MEDUQ3062179 , PGTU4151198 , 40DV , D00087 , DOLLAR CORPORATION , CONTI CORTESIA , FK034A , 04/09/0020 , REL_LKSIL , 0094112433555 , dollar@sltnet.lk , ISO PROPYL ALCOHOL,PURITY 99.8PCT MIN , 0 , 04/09/0020
115 , MEDUQ3108337 , MEDU6686396 , 20DV , S00005 , SEA SHIPPING COLOMBO (PVT) LTD , CONTI CORTESIA , FK034A , 04/09/0020 , REL_LKLIS ,  , imp@seashipping.lk , TYRE CORD  840D1(24EPI 48WIDTH) , 14 , 18/09/0020
115 , MEDUQ3108337 , TGBU2747562 , 20DV , S00005 , SEA SHIPPING COLOMBO (PVT) LTD , CONTI CORTESIA , FK034A , 04/09/0020 , REL_LKLIS ,  , imp@seashipping.lk , TYRE CORD  840D1(24EPI 48WIDTH) , 14 , 18/09/0020
116 , MEDUQ3042791 , TRHU2001999 , 20DV , L00297 , LEOMET STEEL ENGINEERS (PVT)LTD , CONTI CORTESIA , FK034A , 04/09/0020 , REL_LKLIS , 777677444 , roy.ravindra@gmail.com , PPGL STEEL COILS , 14 , 18/09/0020
116 , MEDUQ3042791 , MEDU5737225 , 20DV , L00297 , LEOMET STEEL ENGINEERS (PVT)LTD , CONTI CORTESIA , FK034A , 04/09/0020 , REL_LKLIS , 777677444 , roy.ravindra@gmail.com , PPGL STEEL COILS , 14 , 18/09/0020
117 , MEDUQ3129135 , MEDU2770132 , 20DV , T00368 , THE NATURAL CHOICE(PVT) LTD , CONTI CORTESIA , FK034A , 04/09/0020 , REL_LKLIS , 940347212777 , naturalchoice@gmail.com , POLYMERIC POLYOL PURANOL L2045B , 14 , 18/09/0020
118 , MEDUQ3177878 , TCLU5463990 , 40HC , S01131 , SILKWAY CARGO (PVT) LTD , CONTI CORTESIA , FK034A , 04/09/0020 , REL_LKMCL , 94115541541 , surani_silkway@sltnet.lk , VITOUR BRAND TYRES , 14 , 18/09/0020
119 , MEDUQ3187125 , GESU3840350 , 20DV , A00215 , ATG LANKA (PVT) LTD , CONTI CORTESIA , FK034A , 04/09/0020 , REL_LKLIS , 94114838900 , import@atg-glovesolutions.com , SILICONE FREE SPANDEX YARN , 21 , 25/09/0020
12 , MEDUN8845657 , TCNU1624007 , 40HC , C00084 , CARGOSERV SHIPPING LTD , CONTI CORTESIA , FK034A , 04/09/0020 , REL_LKMCL , 4511012-17 , inward@cargoserv.lk , C1S IVORY BOARD(NINGBO FOLD) , 21 , 25/09/0020
12 , MEDUN8845657 , TGBU7991210 , 40HC , C00084 , CARGOSERV SHIPPING LTD , CONTI CORTESIA , FK034A , 04/09/0020 , REL_LKMCL , 4511012-17 , inward@cargoserv.lk , C1S IVORY BOARD(NINGBO FOLD) , 21 , 25/09/0020
120 , MEDUQ3128442 , DFSU3145969 , 20DV , T00389 , TBS INTERNATIONAL (PVT) LTD , CONTI CORTESIA , FK034A , 04/09/0020 , REL_LKLIS , 0094112076555 , samanr@tbsinter.com , 100%PCT SPANDEX YARN , 21 , 25/09/0020
121 , MEDUQ3156641 , MSCU7524794 , 40HC , 300005 , 3K HOLDINGS (PVT) LTD , CONTI CORTESIA , FK034A , 04/09/0020 , REL_LKMCL , 747650967 , khold@yahoo.com , AUFINE BRAND TYRE, , 7 , 11/09/0020
122 , MEDUQ3176359 , MEDU6141781 , 20DV , S00443 , SHANTHI PLASTIC (PVT) LTD , CONTI CORTESIA , FK034A , 04/09/0020 , REL_LKLIS , 000000 , shanthiplastic@sltnet.lk , PVC RIGID SHEET - CLEAR , 14 , 18/09/0020
123 , MEDUQ3106273 , TTNU1016972 , 20DV , F00100 , FEED CHEMIE (PVT) LTD , CONTI CORTESIA , FK034A , 04/09/0020 , REL_LKLIS , 112518022 , imports@farmchemie.com , L-LYSINE MONOHYDROCHLORIDE 98.5PCT FEED GRADE , 14 , 18/09/0020
124 , MEDUQ3099411 , MSCU6376563 , 20DV , R00014 , RELIANCE TRADING COMPANY , CONTI CORTESIA , FK034A , 04/09/0020 , REL_LKLIS , 94717321113 , anurag@reliancetrading.net , PRE PAINTED ALUZINC COIL (HARDNESS - G550) , 14 , 18/09/0020
124 , MEDUQ3099411 , MEDU3674088 , 20DV , R00014 , RELIANCE TRADING COMPANY , CONTI CORTESIA , FK034A , 04/09/0020 , REL_LKLIS , 94717321113 , anurag@reliancetrading.net , PRE PAINTED ALUZINC COIL (HARDNESS - G550) , 14 , 18/09/0020
124 , MEDUQ3099411 , IPXU2147897 , 20DV , R00014 , RELIANCE TRADING COMPANY , CONTI CORTESIA , FK034A , 04/09/0020 , REL_LKLIS , 94717321113 , anurag@reliancetrading.net , PRE PAINTED ALUZINC COIL (HARDNESS - G550) , 14 , 18/09/0020
124 , MEDUQ3099411 , CAIU6723375 , 20DV , R00014 , RELIANCE TRADING COMPANY , CONTI CORTESIA , FK034A , 04/09/0020 , REL_LKLIS , 94717321113 , anurag@reliancetrading.net , PRE PAINTED ALUZINC COIL (HARDNESS - G550) , 14 , 18/09/0020
124 , MEDUQ3099411 , FCIU2646197 , 20DV , R00014 , RELIANCE TRADING COMPANY , CONTI CORTESIA , FK034A , 04/09/0020 , REL_LKLIS , 94717321113 , anurag@reliancetrading.net , PRE PAINTED ALUZINC COIL (HARDNESS - G550) , 14 , 18/09/0020
125 , MEDUQ3119086 , MSCU3545968 , 20DV , K00005 , KAILASSH HARDWARE CENTRE , CONTI CORTESIA , FK034A , 04/09/0020 , REL_LKLIS , 94112330615 , kailash6@sltnet.lk , PREPAINTED ALUZINC COILS , 14 , 18/09/0020
125 , MEDUQ3119086 , TGHU1918220 , 20DV , K00005 , KAILASSH HARDWARE CENTRE , CONTI CORTESIA , FK034A , 04/09/0020 , REL_LKLIS , 94112330615 , kailash6@sltnet.lk , PREPAINTED ALUZINC COILS , 14 , 18/09/0020
125 , MEDUQ3119086 , MEDU1729073 , 20DV , K00005 , KAILASSH HARDWARE CENTRE , CONTI CORTESIA , FK034A , 04/09/0020 , REL_LKLIS , 94112330615 , kailash6@sltnet.lk , PREPAINTED ALUZINC COILS , 14 , 18/09/0020
125 , MEDUQ3119086 , GLDU5128551 , 20DV , K00005 , KAILASSH HARDWARE CENTRE , CONTI CORTESIA , FK034A , 04/09/0020 , REL_LKLIS , 94112330615 , kailash6@sltnet.lk , PREPAINTED ALUZINC COILS , 14 , 18/09/0020
125 , MEDUQ3119086 , MEDU6022904 , 20DV , K00005 , KAILASSH HARDWARE CENTRE , CONTI CORTESIA , FK034A , 04/09/0020 , REL_LKLIS , 94112330615 , kailash6@sltnet.lk , PREPAINTED ALUZINC COILS , 14 , 18/09/0020
125 , MEDUQ3119086 , MEDU3904088 , 20DV , K00005 , KAILASSH HARDWARE CENTRE , CONTI CORTESIA , FK034A , 04/09/0020 , REL_LKLIS , 94112330615 , kailash6@sltnet.lk , PREPAINTED ALUZINC COILS , 14 , 18/09/0020
126 , MEDUQ3109525 , MEDU7037410 , 40HC , C00031 , C.W. MACKIE PLC , CONTI CORTESIA , FK034A , 04/09/0020 , REL_LKMCL , 94112423554 , scan@cwmackie.com , PEANUT , 14 , 18/09/0020
127 , MEDUQ3109582 , BMOU6544868 , 40HC , C00031 , C.W. MACKIE PLC , CONTI CORTESIA , FK034A , 04/09/0020 , REL_LKMCL , 94112423554 , scan@cwmackie.com , PEANUT , 14 , 18/09/0020
128 , MEDUQ3203559 , GLDU9687394 , 20DV , S01124 , STENCO INTERNATIONAL TRADING COMPANY PVT LTD , CONTI CORTESIA , FK034A , 04/09/0020 , REL_LKLIS , 0094112320706 , info@globaltradesteel.com , PRE PAINTED ALUZINC COIL , 14 , 18/09/0020
128 , MEDUQ3203559 , MEDU5768801 , 20DV , S01124 , STENCO INTERNATIONAL TRADING COMPANY PVT LTD , CONTI CORTESIA , FK034A , 04/09/0020 , REL_LKLIS , 0094112320706 , info@globaltradesteel.com , PRE PAINTED ALUZINC COIL , 14 , 18/09/0020
129 , MEDUQ3203542 , MEDU3951027 , 20DV , S01124 , STENCO INTERNATIONAL TRADING COMPANY PVT LTD , CONTI CORTESIA , FK034A , 04/09/0020 , REL_LKLIS , 0094112320706 , info@globaltradesteel.com , PRE PAINTED ALUZINC COIL , 14 , 18/09/0020
129 , MEDUQ3203542 , CXDU1363275 , 20DV , S01124 , STENCO INTERNATIONAL TRADING COMPANY PVT LTD , CONTI CORTESIA , FK034A , 04/09/0020 , REL_LKLIS , 0094112320706 , info@globaltradesteel.com , PRE PAINTED ALUZINC COIL , 14 , 18/09/0020
13 , MEDUN8845632 , MSDU7908073 , 40HC , C00084 , CARGOSERV SHIPPING LTD , CONTI CORTESIA , FK034A , 04/09/0020 , REL_LKMCL , 4511012-17 , inward@cargoserv.lk , C1S IVORY BOARD NINGBO FOLD , 21 , 25/09/0020
13 , MEDUN8845632 , TCNU7807540 , 40HC , C00084 , CARGOSERV SHIPPING LTD , CONTI CORTESIA , FK034A , 04/09/0020 , REL_LKMCL , 4511012-17 , inward@cargoserv.lk , C1S IVORY BOARD NINGBO FOLD , 21 , 25/09/0020
130 , MEDUQ3188388 , MEDU6687113 , 20DV , M00921 , MEGA ROOFING SOLUTIONS (PVT) LTD , CONTI CORTESIA , FK034A , 04/09/0020 , REL_LKLIS , 714881603 , capitalone@el.lk , PREPAINTED ALUZINC COILS , 14 , 18/09/0020
130 , MEDUQ3188388 , TRHU2139674 , 20DV , M00921 , MEGA ROOFING SOLUTIONS (PVT) LTD , CONTI CORTESIA , FK034A , 04/09/0020 , REL_LKLIS , 714881603 , capitalone@el.lk , PREPAINTED ALUZINC COILS , 14 , 18/09/0020
131 , MEDUQ3184841 , MEDU6992441 , 20DV , K00005 , KAILASSH HARDWARE CENTRE , CONTI CORTESIA , FK034A , 04/09/0020 , REL_LKLIS , 94112330615 , kailash6@sltnet.lk , PREPAINTED ALUZINC COILS , 14 , 18/09/0020
131 , MEDUQ3184841 , TRHU2223445 , 20DV , K00005 , KAILASSH HARDWARE CENTRE , CONTI CORTESIA , FK034A , 04/09/0020 , REL_LKLIS , 94112330615 , kailash6@sltnet.lk , PREPAINTED ALUZINC COILS , 14 , 18/09/0020
131 , MEDUQ3184841 , MEDU6619572 , 20DV , K00005 , KAILASSH HARDWARE CENTRE , CONTI CORTESIA , FK034A , 04/09/0020 , REL_LKLIS , 94112330615 , kailash6@sltnet.lk , PREPAINTED ALUZINC COILS , 14 , 18/09/0020
131 , MEDUQ3184841 , TEMU1369719 , 20DV , K00005 , KAILASSH HARDWARE CENTRE , CONTI CORTESIA , FK034A , 04/09/0020 , REL_LKLIS , 94112330615 , kailash6@sltnet.lk , PREPAINTED ALUZINC COILS , 14 , 18/09/0020
131 , MEDUQ3184841 , MEDU3830982 , 20DV , K00005 , KAILASSH HARDWARE CENTRE , CONTI CORTESIA , FK034A , 04/09/0020 , REL_LKLIS , 94112330615 , kailash6@sltnet.lk , PREPAINTED ALUZINC COILS , 14 , 18/09/0020
132 , MEDUQ3188545 , MEDU3359363 , 20DV , H00232 , HYBRO TRADERS , CONTI CORTESIA , FK034A , 04/09/0020 , REL_JCT ,  , hybrotraders@gmail.com , DCP 18% GRANULAR;DCP 17% GRANULAR;CHOLINE CHLORIDE , 7 , 11/09/0020
133 , MEDUQ3144381 , MSCU1428258 , 20DV , T00388 , TEEJAY LANKA PLC , CONTI CORTESIA , FK034A , 04/09/0020 , REL_JCT , 940364279500 , Yashodad@teejay.com , 21.5MTSODA ASH LIGHT 99.2PCT , 14 , 18/09/0020
133 , MEDUQ3144381 , BMOU2153850 , 20DV , T00388 , TEEJAY LANKA PLC , CONTI CORTESIA , FK034A , 04/09/0020 , REL_JCT , 940364279500 , Yashodad@teejay.com , 21.5MTSODA ASH LIGHT 99.2PCT , 14 , 18/09/0020
133 , MEDUQ3144381 , TRHU2304803 , 20DV , T00388 , TEEJAY LANKA PLC , CONTI CORTESIA , FK034A , 04/09/0020 , REL_JCT , 940364279500 , Yashodad@teejay.com , 21.5MTSODA ASH LIGHT 99.2PCT , 14 , 18/09/0020
134 , MEDUQ3026901 , MEDU2325991 , 20DV , C00069 , CEYLON BISCUITS LIMITED , CONTI CORTESIA , FK034A , 04/09/0020 , REL_LKLIS , 1 , import@munchee.lk , DEXTROSE MONOHYDRATE , 14 , 18/09/0020
134 , MEDUQ3026901 , MEDU6783035 , 20DV , C00069 , CEYLON BISCUITS LIMITED , CONTI CORTESIA , FK034A , 04/09/0020 , REL_LKLIS , 1 , import@munchee.lk , DEXTROSE MONOHYDRATE , 14 , 18/09/0020
135 , MEDUQ3096912 , TCKU1574724 , 20DV , A00817 , ASL LOGISTICS CMB (PVT) LTD , CONTI CORTESIA , FK034A , 04/09/0020 , REL_LKLIS , 94112327188 , lakshitha.cmb@asllogistics-int.com , PVC LAMINATED GYPSUM CEILING TILES , 14 , 18/09/0020
135 , MEDUQ3096912 , GLDU2166373 , 20DV , A00817 , ASL LOGISTICS CMB (PVT) LTD , CONTI CORTESIA , FK034A , 04/09/0020 , REL_LKLIS , 94112327188 , lakshitha.cmb@asllogistics-int.com , PVC LAMINATED GYPSUM CEILING TILES , 14 , 18/09/0020
135 , MEDUQ3096912 , FCIU4447297 , 20DV , A00817 , ASL LOGISTICS CMB (PVT) LTD , CONTI CORTESIA , FK034A , 04/09/0020 , REL_LKLIS , 94112327188 , lakshitha.cmb@asllogistics-int.com , PVC LAMINATED GYPSUM CEILING TILES , 14 , 18/09/0020
135 , MEDUQ3096912 , MEDU3945560 , 20DV , A00817 , ASL LOGISTICS CMB (PVT) LTD , CONTI CORTESIA , FK034A , 04/09/0020 , REL_LKLIS , 94112327188 , lakshitha.cmb@asllogistics-int.com , PVC LAMINATED GYPSUM CEILING TILES , 14 , 18/09/0020
136 , MEDUQ3090063 , MSCU6804229 , 20DV , B00266 , BEST PACIFIC TEXTILES LANKA (PVT) LTD. , CONTI CORTESIA , FK034A , 04/09/0020 , REL_JCT , 94114726543 , WASANTHAC@BRANDIX.COM , FERROUS SULPHATE , 14 , 18/09/0020
136 , MEDUQ3090063 , GLDU3495666 , 20DV , B00266 , BEST PACIFIC TEXTILES LANKA (PVT) LTD. , CONTI CORTESIA , FK034A , 04/09/0020 , REL_JCT , 94114726543 , WASANTHAC@BRANDIX.COM , FERROUS SULPHATE , 14 , 18/09/0020
137 , MEDUQ3066725 , MEDU5489350 , 20DV , T00526 , THE URBAN SPICE SHOP (PVT) LTD , CONTI CORTESIA , FK034A , 04/09/0020 , REL_LKLIS , 6586558498 , dilan.perera@tussspices.com , SALT GRINDER;GLASS SHAKER , 14 , 18/09/0020
138 , MEDUQ3106455 , TGBU7192180 , 40HC , C00458 , CHEMIFARMA INTERNATIONAL (PVT) LTD , CONTI CORTESIA , FK034A , 04/09/0020 , REL_LKMCL ,  , chemifarma@sltnet.lk , SPARE PARTS FOR AUTOMATIC POULTRY KEEPING MACHINER , 14 , 18/09/0020
139 , MEDUQ3117262 , TRLU9516079 , 40DV , N00124 , NISSICO HOLDINGS , CONTI CORTESIA , FK034A , 04/09/0020 , REL_LKMCL , 00000 , nissico@slt.lk , NCR PAPER , 14 , 18/09/0020
14 , MEDUN8828083 , MEDU8488445 , 40HC , C00084 , CARGOSERV SHIPPING LTD , CONTI CORTESIA , FK034A , 04/09/0020 , REL_LKMCL , 4511012-17 , inward@cargoserv.lk , C1S IVORY BOARD(NINGBO FOLD) , 21 , 25/09/0020
140 , MEDUQ3068150 , MEDU2712218 , 20DV , G00248 , GLORCHEM ENTERPRISE , CONTI CORTESIA , FK034A , 04/09/0020 , REL_JCT , 00940112336201 , glorchem@sltnet.lk , CAUSTIC SODA , 0 , 04/09/0020
140 , MEDUQ3068150 , FCIU6034760 , 20DV , G00248 , GLORCHEM ENTERPRISE , CONTI CORTESIA , FK034A , 04/09/0020 , REL_JCT , 00940112336201 , glorchem@sltnet.lk , CAUSTIC SODA , 0 , 04/09/0020
141 , MEDUQ3191663 , FFAU1700552 , 40HC , G00417 , GLOBACTIV SOLUTIONS (PVT) LTD , CONTI CORTESIA , FK034A , 04/09/0020 , REL_LKMCL ,  , OMALIW@GAL.LK ,  , 14 , 18/09/0020
142 , MEDUQ3191259 , CAIU2823442 , 20DV , F00004 , FREIGHT LINE INTERNATIONAL (PVT) LTD , CONTI CORTESIA , FK034A , 04/09/0020 , REL_LKLIS , 0112344433 , sanda1-@sltmobitel.blackberry.com ,  , 14 , 18/09/0020
142 , MEDUQ3191259 , CXDU1173887 , 20DV , F00004 , FREIGHT LINE INTERNATIONAL (PVT) LTD , CONTI CORTESIA , FK034A , 04/09/0020 , REL_LKLIS , 0112344433 , sanda1-@sltmobitel.blackberry.com ,  , 14 , 18/09/0020
143 , MEDUQ3182845 , CAIU2805557 , 20DV , A00293 , AGSTAR CROPCARE (PVT) LTD , CONTI CORTESIA , FK034A , 04/09/0020 , REL_JCT , 4256256 , rihan1966@gmail.com , NPK 12-12-17+2MGO BLUE GRANULAR , 14 , 18/09/0020
143 , MEDUQ3182845 , MEDU2511424 , 20DV , A00293 , AGSTAR CROPCARE (PVT) LTD , CONTI CORTESIA , FK034A , 04/09/0020 , REL_JCT , 4256256 , rihan1966@gmail.com , NPK 15-5-20 PURPLE GRANULAR , 14 , 18/09/0020
143 , MEDUQ3182845 , TEMU3737907 , 20DV , A00293 , AGSTAR CROPCARE (PVT) LTD , CONTI CORTESIA , FK034A , 04/09/0020 , REL_JCT , 4256256 , rihan1966@gmail.com , NPK 12-12-17+2MGO BLUE GRANULAR , 14 , 18/09/0020
143 , MEDUQ3182845 , CAIU6861939 , 20DV , A00293 , AGSTAR CROPCARE (PVT) LTD , CONTI CORTESIA , FK034A , 04/09/0020 , REL_JCT , 4256256 , rihan1966@gmail.com , NPK 12-12-17+2MGO BLUE GRANULAR , 14 , 18/09/0020
143 , MEDUQ3182845 , CAIU2788491 , 20DV , A00293 , AGSTAR CROPCARE (PVT) LTD , CONTI CORTESIA , FK034A , 04/09/0020 , REL_JCT , 4256256 , rihan1966@gmail.com , NPK 12-12-17+2MGO BLUE GRANULAR , 14 , 18/09/0020
143 , MEDUQ3182845 , TCLU2915205 , 20DV , A00293 , AGSTAR CROPCARE (PVT) LTD , CONTI CORTESIA , FK034A , 04/09/0020 , REL_JCT , 4256256 , rihan1966@gmail.com , NPK 15-5-20 PURPLE GRANULAR , 14 , 18/09/0020
143 , MEDUQ3182845 , SEGU2765718 , 20DV , A00293 , AGSTAR CROPCARE (PVT) LTD , CONTI CORTESIA , FK034A , 04/09/0020 , REL_JCT , 4256256 , rihan1966@gmail.com , NPK 12-12-17+2MGO BLUE GRANULAR , 14 , 18/09/0020
143 , MEDUQ3182845 , CRSU1251563 , 20DV , A00293 , AGSTAR CROPCARE (PVT) LTD , CONTI CORTESIA , FK034A , 04/09/0020 , REL_JCT , 4256256 , rihan1966@gmail.com , NPK 12-12-17+2MGO BLUE GRANULAR , 14 , 18/09/0020
143 , MEDUQ3182845 , MSDU1220972 , 20DV , A00293 , AGSTAR CROPCARE (PVT) LTD , CONTI CORTESIA , FK034A , 04/09/0020 , REL_JCT , 4256256 , rihan1966@gmail.com , NPK 12-12-17+2MGO BLUE GRANULAR , 14 , 18/09/0020
143 , MEDUQ3182845 , MEDU5180470 , 20DV , A00293 , AGSTAR CROPCARE (PVT) LTD , CONTI CORTESIA , FK034A , 04/09/0020 , REL_JCT , 4256256 , rihan1966@gmail.com , NPK 12-12-17+2MGO BLUE GRANULAR , 14 , 18/09/0020
143 , MEDUQ3182845 , MEDU3464034 , 20DV , A00293 , AGSTAR CROPCARE (PVT) LTD , CONTI CORTESIA , FK034A , 04/09/0020 , REL_JCT , 4256256 , rihan1966@gmail.com , NPK 15-5-20 PURPLE GRANULAR , 14 , 18/09/0020
144 , MEDUQ3128491 , MEDU4930420 , 40HC , S00067 , SAMSON COMPOUNDS (PVT) LTD , CONTI CORTESIA , FK034A , 04/09/0020 , REL_LKACE , 0912234597 , info@samsoncompundos.com , CARBON BLACK N330 , 14 , 18/09/0020
145 , MEDUQ3166681 , MEDU2243255 , 20DV , C00109 , CIC FEEDS PVT LTD , CONTI CORTESIA , FK034A , 04/09/0020 , REL_JCT , 0094114830990 , nilan@cicfeeds.lk , L-LYSINE MONOHYDROCHLORIDE , 14 , 18/09/0020
146 , MEDUQ3045091 , MSCU7492070 , 40HC , L00432 , LUXMAN METAL CRUSHERS AND ENTERPRISES , CONTI CORTESIA , FK034A , 04/09/0020 , REL_LKSIL ,  , LUXMANMETAL@SLTNET.LK , YHZM20 MOBILE CONCRETE BATCHING PLANT , 14 , 18/09/0020
146 , MEDUQ3045091 , CLHU9009741 , 40HC , L00432 , LUXMAN METAL CRUSHERS AND ENTERPRISES , CONTI CORTESIA , FK034A , 04/09/0020 , REL_LKSIL ,  , LUXMANMETAL@SLTNET.LK , YHZM20 MOBILE CONCRETE BATCHING PLANT , 14 , 18/09/0020
147 , MEDUQ3103080 , MEDU1781169 , 20DV , V00081 , VIN AGRI BUSINESS , CONTI CORTESIA , FK034A , 04/09/0020 , REL_JCT , 94125451412 , vinagri@gmail.com , 27MT- NPK 12-12-17+2 MGO , 14 , 18/09/0020
147 , MEDUQ3103080 , MSCU3313535 , 20DV , V00081 , VIN AGRI BUSINESS , CONTI CORTESIA , FK034A , 04/09/0020 , REL_JCT , 94125451412 , vinagri@gmail.com , 27MT- NPK 12-12-17+2 MGO , 14 , 18/09/0020
147 , MEDUQ3103080 , MEDU3737139 , 20DV , V00081 , VIN AGRI BUSINESS , CONTI CORTESIA , FK034A , 04/09/0020 , REL_JCT , 94125451412 , vinagri@gmail.com , 27MT- NPK 12-12-17+2 MGO , 14 , 18/09/0020
148 , MEDUQ3103072 , IPXU2158021 , 20DV , S00876 , SOUTH ASIA TEXTILES LIMITED , CONTI CORTESIA , FK034A , 04/09/0020 , REL_JCT ,  , lal@satextile.com , 25MT POLY ALUMINIUM CHLORIDE , 14 , 18/09/0020
148 , MEDUQ3103072 , MEDU1664727 , 20DV , S00876 , SOUTH ASIA TEXTILES LIMITED , CONTI CORTESIA , FK034A , 04/09/0020 , REL_JCT ,  , lal@satextile.com , 25MT POLY ALUMINIUM CHLORIDE , 14 , 18/09/0020
148 , MEDUQ3103072 , MEDU1726475 , 20DV , S00876 , SOUTH ASIA TEXTILES LIMITED , CONTI CORTESIA , FK034A , 04/09/0020 , REL_JCT ,  , lal@satextile.com , 25MT POLY ALUMINIUM CHLORIDE , 14 , 18/09/0020
149 , MEDUQ3099395 , MEDU1862471 , 20DV , W00418 , WATERCARE TECHNOLOGIES (PVT) LTD , CONTI CORTESIA , FK034A , 04/09/0020 , REL_JCT , 940112895350 , watercare@wtc.lk , 27MT ALUMINIUM SULPHATE-NON FERRIC POWDER , 14 , 18/09/0020
15 , MEDUN8845624 , GLDU7425271 , 40HC , C00084 , CARGOSERV SHIPPING LTD , CONTI CORTESIA , FK034A , 04/09/0020 , REL_LKSIL , 4511012-17 , inward@cargoserv.lk , C1S IVORY BOARD NINGBO FOLD , 21 , 25/09/0020
150 , MEDUQ3090592 , BEAU2974676 , 20DV , J00002 , JAYES TRADING COMPANY , CONTI CORTESIA , FK034A , 04/09/0020 , REL_JCT , 112338851 , jaychem@sltnet.lk , 25.2 MT GLACIAL ACETIC ACID 99.8% , 7 , 11/09/0020
151 , MEDUQ3050802 , MEDU3991971 , 20DV , C00126 , CAUSEWAY PAINTS LANKA PVT LTD , CONTI CORTESIA , FK034A , 04/09/0020 , REL_JCT , 0094382240040 , couseway@sltnet.lk , TITANIUM DIOXIDE RUTILE , 14 , 18/09/0020
152 , MEDUQ3052428 , FCIU5868639 , 20DV , K00282 , KANLI CHEMICALS(PVT)LTD , CONTI CORTESIA , FK034A , 04/09/0020 , REL_JCT , 94773064946 , admin@kanlichem.com ,  , 14 , 18/09/0020
153 , MEDUQ3055165 , MSDU7311869 , 40HC , M00191 , MAGNUM TEXTILE , CONTI CORTESIA , FK034A , 04/09/0020 , REL_LKSIL , 112321655 , anoon@sltnet.lk , 65% COTTON 35% POLYESTER YARN , 14 , 18/09/0020
154 , MEDUQ3060645 , GLDU3323878 , 20DV , A00906 , ANDROMEDA INTERNATIONAL SL PVT LTD , CONTI CORTESIA , FK034A , 04/09/0020 , REL_JCT , 0094112615844 , sanjeewa@andromedahk.net , 22MT SODA ASH LIGHT , 14 , 18/09/0020
154 , MEDUQ3060645 , MSCU6121201 , 20DV , A00906 , ANDROMEDA INTERNATIONAL SL PVT LTD , CONTI CORTESIA , FK034A , 04/09/0020 , REL_JCT , 0094112615844 , sanjeewa@andromedahk.net , 22MT SODA ASH LIGHT , 14 , 18/09/0020
155 , MEDUQ3084827 , MEDU2475522 , 20DV , D00016 , DART GLOBAL LOGISTICS (PVT) LTD , CONTI CORTESIA , FK034A , 04/09/0020 , REL_JCT , 94114609600 , chathura.cmb@dartglobal.com , SAFETY SHOES , 14 , 18/09/0020
157 , MEDUQ3088844 , MEDU6254108 , 20DV , S00924 , SKY GLASS , CONTI CORTESIA , FK034A , 04/09/0020 , REL_LKLIS , 94777341124 , SkyGlass@gmail.com , DARK BLUE REFLECTIVE GLASS, DARK GREEN REFLECTIVEG , 21 , 25/09/0020
158 , MEDUQ3107941 , CARU3086460 , 20DV , N00043 , NARAH COMPUTER FORMS , CONTI CORTESIA , FK034A , 04/09/0020 , REL_LKLIS ,  , packsco@sltnet.lk , JH-IMAGE CARBONLESS PAPER IN SHEETS IN BLUE IMAGE , 14 , 18/09/0020
159 , MEDUQ3134143 , GLDU3576710 , 20DV , H00343 , HERMES TRADE LINK (PVT) LTD , CONTI CORTESIA , FK034A , 04/09/0020 , REL_LKLIS , 0094112472186 , altwar@outlook.com , TEXTILE FABRIC , 14 , 18/09/0020
16 , MEDUN8845640 , GLDU0684917 , 40HC , C00084 , CARGOSERV SHIPPING LTD , CONTI CORTESIA , FK034A , 04/09/0020 , REL_LKSIL , 4511012-17 , inward@cargoserv.lk , C1S IVORY BOARD NINGBO FOLD , 21 , 25/09/0020
160 , MEDUQ3089800 , MEDU2722509 , 20DV , M00025 , MARINE TRANSPORT SERVICES PVT LTD , CONTI CORTESIA , FK034A , 04/09/0020 , REL_JCT , 5221221 , kumara@marine.lk , NPK 15-05-25 GREEN GRANULAR FERTILIZER , 14 , 18/09/0020
160 , MEDUQ3089800 , SEGU2679902 , 20DV , M00025 , MARINE TRANSPORT SERVICES PVT LTD , CONTI CORTESIA , FK034A , 04/09/0020 , REL_JCT , 5221221 , kumara@marine.lk , NPK 15-05-25 GREEN GRANULAR FERTILIZER , 14 , 18/09/0020
161 , MEDUQ3114368 , MEDU8963925 , 40HC , B00318 , BROWN REVON TRADE (PVT) LTD , CONTI CORTESIA , FK034A , 04/09/0020 , REL_LKSIL , 941123038560 , brown peter@gmail.com , TEXTILE FABRICS , 14 , 18/09/0020
162 , MEDUQ3157615 , TEMU3747361 , 20DV , M00006 , MSA SHIPPING (PVT) LTD , CONTI CORTESIA , FK034A , 04/09/0020 , REL_LKLIS , 2385289 , impdoc2@msashipping.com , CASTED WHEEL , 14 , 18/09/0020
163 , MEDUQ3108097 , MEDU2824666 , 20DV , G00109 , GRAKK COMPUTER FORMS(PVT)LTD. , CONTI CORTESIA , FK034A , 04/09/0020 , REL_LKLIS , 94011739697010307 , kanchana@asiantraderesources.com , JH-IMAGE CARBONLESS PAPER IN ROLLS IN BLUE IMAGE , 14 , 18/09/0020
164 , MEDUQ3110911 , INBU3737217 , 20DV , O00134 , ORIT TRADING LANKA (PVT) LTD , CONTI CORTESIA , FK034A , 04/09/0020 , REL_LKLIS , +94 112154421 , chandana@oritsl.com , POCKETING , 14 , 18/09/0020
165 , MEDUQ3114137 , MSDU7917898 , 40HC , M01036 , MERCANTILE HARDWARE (PVT) LTD. , CONTI CORTESIA , FK034A , 04/09/0020 , REL_LKSIL , 94757815134 , mercantilehardware@gmail.com , LM24-2C RICE HULLER COMPLETE WITH STANDARD ACCESSO , 14 , 18/09/0020
166 , MEDUQ3087069 , MSCU4967510 , 40HC , D00110 , DEEN BROTHERS IMPORTS (PVT) LTD , CONTI CORTESIA , FK034A , 04/09/0020 , REL_LKSIL ,  , deenimp@sltnet.lk , BRUSH CUTTER MODEL DE328 , 14 , 18/09/0020
167 , MEDUQ2976924 , TCLU2608657 , 20DV , A00550 , ANDRY ALUMINIUM INDUSTRY (PVT) LTD , CONTI CORTESIA , FK034A , 04/09/0020 , REL_LKLIS , 940117209761 , andryindustry@gmail.com ,  , 14 , 18/09/0020
168 , MEDUQ3166541 , CAIU6436143 , 20DV , S00811 , S.B.PRINTERS (PVT) LTD , CONTI CORTESIA , FK034A , 04/09/0020 , REL_LKLIS ,  , sbprinters@sltnet.lk , JHE BLACK IMAGE THERMAL PAPER  IN JUMBO ROLLS , 7 , 11/09/0020
169 , MEDUQ3206495 , FFAU1331650 , 40HC , N00166 , NAVOKA SHIPPING & LOGISTICS (PVT) LTD , CONTI CORTESIA , FK034A , 04/09/0020 , REL_LKACE , 114342647 , kanchana@navoka.lk , WHEELBARROW WB3800 , 14 , 18/09/0020
17 , MEDUN8845616 , MEDU4974372 , 40HC , C00084 , CARGOSERV SHIPPING LTD , CONTI CORTESIA , FK034A , 04/09/0020 , REL_LKACE , 4511012-17 , inward@cargoserv.lk , C1S IVORY BOARD NINGBO FOLD , 21 , 25/09/0020
170 , MEDUQ3211008 , AMFU8922845 , 40HC , H00177 , HAYLEYS FREE ZONE LIMITED , CONTI CORTESIA , FK034A , 04/09/0020 , REL_LKACE , 94112255030 , Darshana.Chamil@advantis.world , PNEUMATIC TYRE , 14 , 18/09/0020
171 , MEDUQ3210109 , CXDU1417258 , 20DV , D00016 , DART GLOBAL LOGISTICS (PVT) LTD , CONTI CORTESIA , FK034A , 04/09/0020 , REL_LKSIL , 94114609600 , chathura.cmb@dartglobal.com , RICE STEAMER , 14 , 18/09/0020
172 , MEDUQ3213202 , TCKU2752775 , 20DV , A00876 , ABANCHY CEYLON (PVT) LTD , CONTI CORTESIA , FK034A , 04/09/0020 , REL_LKSIL ,  , lasitha@abanchy.com , FOUR ROLLER CALENDER MACHINE , 7 , 11/09/0020
173 , MEDUQ3188370 , MSCU6587817 , 20DV , P00005 , PETTAH ESSENCE SUPPLIERS , CONTI CORTESIA , FK034A , 04/09/0020 , REL_LKSIL ,  , pettaess@sltnet.lk , AMMONIUM BICARBONATE , 14 , 18/09/0020
174 , MEDUQ3213541 , MEDU2831475 , 20DV , I00035 , ISLAND TRADE CENTRE (PVT)LTD , CONTI CORTESIA , FK034A , 04/09/0020 , REL_LKSIL , 940112431223 , goldlandtc@hotmail.com , ALUMINIUM PLAIN SHEET AA1100 H-14 WITH PVC FILM , 7 , 11/09/0020
175 , MEDUQ3217278 , FFAU1931192 , 40HC , E00371 , EVERSHINE IMPEX PVT LTD , CONTI CORTESIA , FK034A , 04/09/0020 , REL_LKACE , 0094112449130 , evershine_impex@yahoo.com , WATERPROOF CARPET , 7 , 11/09/0020
176 , MEDUQ3225875 , BMOU2420072 , 20DV , S01292 , SKY TEXT LANKA (PVT) LTD , CONTI CORTESIA , FK034A , 04/09/0020 , REL_LKACE , 940117874500 , SKYTEXTLANKA123@GMAIL.COM , TEXTILE FABRICS , 7 , 11/09/0020
177 , MEDUQ3232582 , CLHU9003640 , 40HC , T00121 , TRELLEBORG TYRES LANKA (PVT) LIMITED , CONTI CORTESIA , FK034A , 04/09/0020 , REL_LKACE , 112400338 , ttsl@trelleborg.com , BASE BAND WHEEL , 7 , 11/09/0020
177 , MEDUQ3232582 , FSCU8846801 , 40HC , T00121 , TRELLEBORG TYRES LANKA (PVT) LIMITED , CONTI CORTESIA , FK034A , 04/09/0020 , REL_LKACE , 112400338 , ttsl@trelleborg.com , BASE BAND WHEEL , 7 , 11/09/0020
178 , MEDUQ3171574 , MEDU4391713 , 40HC , W00038 , WORLDGATE EXPRESS LINES LANKA PVT LTD , CONTI CORTESIA , FK034A , 04/09/0020 , REL_LKACE , 94115759001 , custopmerservice@worldgate.lk , FRUIT NET BAG , 7 , 11/09/0020
179 , MEDUQ3167853 , SEGU6925537 , 40HC , S01073 , SENA MILLS REFINERIES EXPORTS (PRIVATE) LTD , CONTI CORTESIA , FK034A , 04/09/0020 , REL_LKACE ,  , INFO@SMRCONSOLIDATED.COM , STEEL DRUMS , 7 , 11/09/0020
18 , MEDUQ3035720 , MEDU3362536 , 20DV , A00550 , ANDRY ALUMINIUM INDUSTRY (PVT) LTD , CONTI CORTESIA , FK034A , 04/09/0020 , REL_LKLIS , 940117209761 , andryindustry@gmail.com , ALUMINIUM COIL IN FOIL FOAM , 14 , 18/09/0020
180 , MEDUQ3157771 , CAIU7429025 , 40HC , S01131 , SILKWAY CARGO (PVT) LTD , CONTI CORTESIA , FK034A , 04/09/0020 , REL_LKACE , 94115541541 , surani_silkway@sltnet.lk , ROADSHINE BRAND TYRES , 14 , 18/09/0020
181 , MEDUQ3176250 , MEDU3886087 , 20DV , M00006 , MSA SHIPPING (PVT) LTD , CONTI CORTESIA , FK034A , 04/09/0020 , REL_CICT , 2385289 , impdoc2@msashipping.com , SODA ASH LIGHT , 14 , 18/09/0020
181 , MEDUQ3176250 , MSCU6480310 , 20DV , M00006 , MSA SHIPPING (PVT) LTD , CONTI CORTESIA , FK034A , 04/09/0020 , REL_CICT , 2385289 , impdoc2@msashipping.com , SODA ASH LIGHT , 14 , 18/09/0020
181 , MEDUQ3176250 , GLDU9458084 , 20DV , M00006 , MSA SHIPPING (PVT) LTD , CONTI CORTESIA , FK034A , 04/09/0020 , REL_CICT , 2385289 , impdoc2@msashipping.com , SODA ASH LIGHT , 14 , 18/09/0020
181 , MEDUQ3176250 , MEDU1495777 , 20DV , M00006 , MSA SHIPPING (PVT) LTD , CONTI CORTESIA , FK034A , 04/09/0020 , REL_CICT , 2385289 , impdoc2@msashipping.com , SODA ASH LIGHT , 14 , 18/09/0020
181 , MEDUQ3176250 , GLDU2225898 , 20DV , M00006 , MSA SHIPPING (PVT) LTD , CONTI CORTESIA , FK034A , 04/09/0020 , REL_CICT , 2385289 , impdoc2@msashipping.com , SODA ASH LIGHT , 14 , 18/09/0020
181 , MEDUQ3176250 , MEDU1296311 , 20DV , M00006 , MSA SHIPPING (PVT) LTD , CONTI CORTESIA , FK034A , 04/09/0020 , REL_CICT , 2385289 , impdoc2@msashipping.com , SODA ASH LIGHT , 14 , 18/09/0020
181 , MEDUQ3176250 , MSDU1099120 , 20DV , M00006 , MSA SHIPPING (PVT) LTD , CONTI CORTESIA , FK034A , 04/09/0020 , REL_CICT , 2385289 , impdoc2@msashipping.com , SODA ASH LIGHT , 14 , 18/09/0020
181 , MEDUQ3176250 , CRXU3152860 , 20DV , M00006 , MSA SHIPPING (PVT) LTD , CONTI CORTESIA , FK034A , 04/09/0020 , REL_CICT , 2385289 , impdoc2@msashipping.com , SODA ASH LIGHT , 14 , 18/09/0020
181 , MEDUQ3176250 , FSCU3378478 , 20DV , M00006 , MSA SHIPPING (PVT) LTD , CONTI CORTESIA , FK034A , 04/09/0020 , REL_CICT , 2385289 , impdoc2@msashipping.com , SODA ASH LIGHT , 14 , 18/09/0020
181 , MEDUQ3176250 , MEDU2742763 , 20DV , M00006 , MSA SHIPPING (PVT) LTD , CONTI CORTESIA , FK034A , 04/09/0020 , REL_CICT , 2385289 , impdoc2@msashipping.com , SODA ASH LIGHT , 14 , 18/09/0020
181 , MEDUQ3176250 , FSCU7584501 , 20DV , M00006 , MSA SHIPPING (PVT) LTD , CONTI CORTESIA , FK034A , 04/09/0020 , REL_CICT , 2385289 , impdoc2@msashipping.com , SODA ASH LIGHT , 14 , 18/09/0020
181 , MEDUQ3176250 , MEDU1934123 , 20DV , M00006 , MSA SHIPPING (PVT) LTD , CONTI CORTESIA , FK034A , 04/09/0020 , REL_CICT , 2385289 , impdoc2@msashipping.com , SODA ASH LIGHT , 14 , 18/09/0020
182 , MEDUQ3155452 , FSCU3595283 , 20DV , A00876 , ABANCHY CEYLON (PVT) LTD , CONTI CORTESIA , FK034A , 04/09/0020 , REL_LKLIS ,  , lasitha@abanchy.com , FOUR ROLLER CALENDER MACHINE , 7 , 11/09/0020
183 , MEDUQ3153499 , GLDU5586636 , 20DV , J00002 , JAYES TRADING COMPANY , CONTI CORTESIA , FK034A , 04/09/0020 , REL_CICT , 112338851 , jaychem@sltnet.lk , SODA ASH LIGHT , 14 , 18/09/0020
183 , MEDUQ3153499 , MEDU2606710 , 20DV , J00002 , JAYES TRADING COMPANY , CONTI CORTESIA , FK034A , 04/09/0020 , REL_CICT , 112338851 , jaychem@sltnet.lk , SODA ASH LIGHT , 14 , 18/09/0020
184 , MEDUQ3149596 , MSCU6809236 , 20DV , S00876 , SOUTH ASIA TEXTILES LIMITED , CONTI CORTESIA , FK034A , 04/09/0020 , REL_CICT ,  , lal@satextile.com , 26MT CAUSTIC SODA FLAKES 99%MIN , 14 , 18/09/0020
185 , MEDUQ3149588 , MEDU5538558 , 20DV , C00720 , CHEM LANKA TRADING (PVT) LTD. , CONTI CORTESIA , FK034A , 04/09/0020 , REL_CICT , 940094777378978 , dowelco@sltnet.lk , 26MT CAUSTIC SODA FLAKES 99%MIN , 14 , 18/09/0020
186 , MEDUQ3149570 , CRXU3434190 , 20DV , T00030 , TEXPRO INDUSTRIES LTD , CONTI CORTESIA , FK034A , 04/09/0020 , REL_CICT , 32123 , sabrim@texprofabrics.com , 26MT CAUSTIC SODA FLAKES 99% , 14 , 18/09/0020
187 , MEDUQ3197363 , CXDU1590520 , 20DV , O00085 , OVATA FORMS (PVT) LTD , CONTI CORTESIA , FK034A , 04/09/0020 , REL_LKLIS ,  , udeshi@asiantraderesources.com , NCR PAPER , 14 , 18/09/0020
188 , MEDUQ3144373 , FSCU7657249 , 20DV , A00621 , ANTLER INDUSTRIES (PVT.) LTD. , CONTI CORTESIA , FK034A , 04/09/0020 , REL_CICT , 0094112433555 , TANJA@LUKEM.SINET , 22MT SODA ASH LIGHT , 14 , 18/09/0020
188 , MEDUQ3144373 , MSCU6231153 , 20DV , A00621 , ANTLER INDUSTRIES (PVT.) LTD. , CONTI CORTESIA , FK034A , 04/09/0020 , REL_CICT , 0094112433555 , TANJA@LUKEM.SINET , 22MT SODA ASH LIGHT , 14 , 18/09/0020
189 , MEDUQ3143755 , FCIU5877651 , 20DV , C00126 , CAUSEWAY PAINTS LANKA PVT LTD , CONTI CORTESIA , FK034A , 04/09/0020 , REL_CICT , 0094382240040 , couseway@sltnet.lk , TITANIUM DIOXIDE RUTILE , 14 , 18/09/0020
19 , MEDUQ3160817 , FBIU0182243 , 20DV , L00136 , LANKA SHIPPING & LOGISTICS(PVT) LTD , CONTI CORTESIA , FK034A , 04/09/0020 , REL_LKLIS ,  , iresha@lankaship.lk , PREPAINTED ALU-ZINC STEEL COILS , 14 , 18/09/0020
19 , MEDUQ3160817 , FCIU5884917 , 20DV , L00136 , LANKA SHIPPING & LOGISTICS(PVT) LTD , CONTI CORTESIA , FK034A , 04/09/0020 , REL_LKLIS ,  , iresha@lankaship.lk , PREPAINTED ALU-ZINC STEEL COILS , 14 , 18/09/0020
19 , MEDUQ3160817 , TEMU2956562 , 20DV , L00136 , LANKA SHIPPING & LOGISTICS(PVT) LTD , CONTI CORTESIA , FK034A , 04/09/0020 , REL_LKLIS ,  , iresha@lankaship.lk , PREPAINTED ALU-ZINC STEEL COILS , 14 , 18/09/0020
190 , MEDUQ3187497 , TCLU5912811 , 40HC , M00191 , MAGNUM TEXTILE , CONTI CORTESIA , FK034A , 04/09/0020 , REL_LKACE , 112321655 , anoon@sltnet.lk , 65% COTTON 35% POLYESTER YARN , 14 , 18/09/0020
191 , MEDUSY750763 , AMFU3160808 , 20DV , E00078 , EAGLE LOGISTICS COLOMBO (PVT) LTD , CONTI CORTESIA , FK034A , 04/09/0020 , REL_LKSIL , 00945300275 , nadeera@eaglelogisticscmb.com , 18000 PCS LED PANEL LIGHTS , 14 , 18/09/0020
192 , MEDUSY742133 , CAIU6878084 , 20DV , G00296 , GLOBACTIV LOGISTICS (PVT) LTD. , CONTI CORTESIA , FK034A , 04/09/0020 , REL_LKSIL , 0777126986 , seaimport@gal.lk , METAL RIM WITHOUT BRAKE R , 14 , 18/09/0020
193 , MEDUSY720071 , DFSU2894514 , 20DV , A00259 , ASB FREIGHT (PVT) LTD , CONTI CORTESIA , FK034A , 04/09/0020 , REL_LKSIL , 94115300250 , thushara@asbcmb.com , INDUSTRIAL WEBBING , 14 , 18/09/0020
194 , MEDUSY714223 , DFSU1480654 , 20DV , O00030 , OCEAN HD THROUGH TRANSPORT (PVT) LTD , CONTI CORTESIA , FK034A , 04/09/0020 , REL_LKSIL , 94112333800 , nalinda@oceanhd.lk , SPONGE , 14 , 18/09/0020
195 , MEDUSY750771 , FSCU7679464 , 20DV , E00078 , EAGLE LOGISTICS COLOMBO (PVT) LTD , CONTI CORTESIA , FK034A , 04/09/0020 , REL_LKSIL , 00945300275 , nadeera@eaglelogisticscmb.com , 10G POLYESTER GLOVE SHELLS , 14 , 18/09/0020
196 , MEDUSY749039 , MEDU1304778 , 20DV , A00817 , ASL LOGISTICS CMB (PVT) LTD , CONTI CORTESIA , FK034A , 04/09/0020 , REL_LKSIL , 94112327188 , lakshitha.cmb@asllogistics-int.com , WORKING GLOVES , 14 , 18/09/0020
197 , MEDUSY712631 , INKU6613505 , 40HC , K00246 , KENSORTIUM LANKA INTERNATIONAL PVT LTD , CONTI CORTESIA , FK034A , 04/09/0020 , REL_LKACE , 94773280962 , INFO@KENSORTIUM.COM , BABY STROLLER , 14 , 18/09/0020
197 , MEDUSY712631 , MSDU7902080 , 40HC , K00246 , KENSORTIUM LANKA INTERNATIONAL PVT LTD , CONTI CORTESIA , FK034A , 04/09/0020 , REL_LKACE , 94773280962 , INFO@KENSORTIUM.COM , BABY STROLLER , 14 , 18/09/0020
198 , MEDUSY784945 , TEMU6588582 , 40HC , M00333 , MCRE LOGISTICS (PVT) LTD. , CONTI CORTESIA , FK034A , 04/09/0020 , REL_LKACE , 112943588 , cargocon@sltnet.lk , BICYCLE SPARE PARTS , 14 , 18/09/0020
199 , MEDUSY684384 , FCIU6367441 , 20DV , S00067 , SAMSON COMPOUNDS (PVT) LTD , CONTI CORTESIA , FK034A , 04/09/0020 , REL_CICT , 0912234597 , info@samsoncompundos.com , AZODICARBONAMIDE , 14 , 18/09/0020
20 , MEDUQ3104682 , MSCU4959833 , 40HC , E00371 , EVERSHINE IMPEX PVT LTD , CONTI CORTESIA , FK034A , 04/09/0020 , REL_LKACE , 0094112449130 , evershine_impex@yahoo.com , VINYL STRING CARPET , 14 , 18/09/0020
200 , MEDUSY725179 , FSCU3332857 , 20DV , S00372 , SAMSON MANUFACTURERS (PVT) LTD , CONTI CORTESIA , FK034A , 04/09/0020 , REL_CICT , 0112970780 , info@ranpa.lk , AZODICARBONAMIDE , 14 , 18/09/0020
201 , MEDUSY696529 , MEDU2165492 , 20DV , T00515 , TRIDENT CORPORATION PVT LTD , CONTI CORTESIA , FK034A , 04/09/0020 , REL_LKLIS , 94115552324565393 , CORPORATION (PVT) LTD , SAMSUNG BRAND MONITOR , 28 , 02/10/0020
202 , MEDUSY712623 , GLDU5709875 , 20DV , S00068 , SIGMA ENTERPRISES , CONTI CORTESIA , FK034A , 04/09/0020 , REL_LKLIS , 94114481723 , sara@worldwide.ae , WIRE ROPE CLIPS , 14 , 18/09/0020
203 , MEDUSY742059 , TCLU3114582 , 20DV , V00173 , VIND-YA POLYMERS (PVT) LTD , CONTI CORTESIA , FK034A , 04/09/0020 , REL_LKLIS , 94112855130 , info@vind-ya.com , PVC COMPOUND , 14 , 18/09/0020
204 , MEDUSY762859 , GLDU3804364 , 20DV , S00023 , SEACARE FORWARDERS (PVT) LTD , CONTI CORTESIA , FK034A , 04/09/0020 , REL_LKLIS , 94114723448 , seacare@sltnet.lk , FABRIC , 14 , 18/09/0020
204 , MEDUSY762859 , TEMU4767573 , 20DV , S00023 , SEACARE FORWARDERS (PVT) LTD , CONTI CORTESIA , FK034A , 04/09/0020 , REL_LKLIS , 94114723448 , seacare@sltnet.lk , FABRIC , 14 , 18/09/0020
205 , MEDUSY650690 , TGHU3963547 , 20DV , E00330 , EXPLORA GASES (PVT) LTD , CONTI CORTESIA , FK034A , 04/09/0020 , REL_CICT , 94777477339 , Export.vkglobal@gmail.com , CALCIUM CARBIDE , 14 , 18/09/0020
205 , MEDUSY650690 , MEDU3214565 , 20DV , E00330 , EXPLORA GASES (PVT) LTD , CONTI CORTESIA , FK034A , 04/09/0020 , REL_CICT , 94777477339 , Export.vkglobal@gmail.com , CALCIUM CARBIDE , 14 , 18/09/0020
206 , MEDUSY750805 , MEDU1228071 , 20DV , P00157 , PRESTIGE INTERNATIONAL LOGISTICS (PVT) LTD , CONTI CORTESIA , FK034A , 04/09/0020 , REL_LKLIS , 94112470099 , docs.prestige@pilcmb.com , ALUMINIUM COMPOSITE PANEL , 14 , 18/09/0020
207 , MEDUSY753460 , MSCU2594206 , 20DV , A00817 , ASL LOGISTICS CMB (PVT) LTD , CONTI CORTESIA , FK034A , 04/09/0020 , REL_CICT , 94112327188 , lakshitha.cmb@asllogistics-int.com , 97 PCT COTTON 3 PCT SPANDEX DENIM STRETCH DYED TWI , 14 , 18/09/0020
208 , MEDUSY462765 , TTNU3005067 , 20DV , P00300 , PGC MARKETING(PVT)LTD , CONTI CORTESIA , FK034A , 04/09/0020 , REL_CICT , 94115541541 , jayarathnegroup@gmail.com , CALCIUM CARBIDE , 14 , 18/09/0020
208 , MEDUSY462765 , BSIU2359430 , 20DV , P00300 , PGC MARKETING(PVT)LTD , CONTI CORTESIA , FK034A , 04/09/0020 , REL_CICT , 94115541541 , jayarathnegroup@gmail.com , CALCIUM CARBIDE , 14 , 18/09/0020
209 , MEDUSY261951 , MEDU3017904 , 20DV , G00172 , GATEWAY METALS , CONTI CORTESIA , FK034A , 04/09/0020 , REL_CICT , 0112337554 , gateway_335@yahoo.com , CALCIUM CARBIDE , 14 , 18/09/0020
21 , MEDUQ3102595 , MEDU6640374 , 20DV , S01286 , SKYLINE IMPEX (PVT) LTD , CONTI CORTESIA , FK034A , 04/09/0020 , REL_LKLIS , 00940757017760 , linesky049@gmail.com , ALUMINUM COMPOSITE PANEL , 14 , 18/09/0020
210 , MEDUSY744287 , MSDU1157289 , 20DV , H00343 , HERMES TRADE LINK (PVT) LTD , CONTI CORTESIA , FK034A , 04/09/0020 , REL_LKLIS , 0094112472186 , altwar@outlook.com , TEXTILE FABRICS , 14 , 18/09/0020
211 , MEDUSY737604 , TCKU1689261 , 20DV , F00318 , FABRIC LANKA , CONTI CORTESIA , FK034A , 04/09/0020 , REL_LKLIS , 0094777321271 , BOBSONG@163.COM , TEXTILE FABRIC , 14 , 18/09/0020
212 , MEDUSY758634 , GLDU5512588 , 20DV , D00359 , DFL GLOBAL (PVT) LTD , CONTI CORTESIA , FK034A , 04/09/0020 , REL_LKLIS ,  , impdocs1@dflglobal.com , FLEX BANNER ROLL , 14 , 18/09/0020
213 , MEDUS2679885 , MEDU5064211 , 20DV , H00342 , HOBBYMART LK PVT LTD , CONTI CORTESIA , FK034A , 04/09/0020 , REL_LKLIS ,  , TOSACHI@GMAIL.COM , KIDS TOYS WITH TOY ACCESSORIES , 14 , 18/09/0020
214 , MEDUZE564360 , GLDU3982788 , 20DV , A00531 , A.R. TRADERS , CONTI CORTESIA , FK034A , 04/09/0020 , REL_LKLIS ,  , artraders@gmail.com , POLYESTER 100D RECYCLE PVC 0.12MM W 58"-60" , 14 , 18/09/0020
215 , MEDUZE591579 , CLHU4645519 , 40DV , M01032 , MAC G.F LANKA (PVT) LTD. , CONTI CORTESIA , FK034A , 04/09/0020 , REL_LKMCL ,  , chamaran@macholdings.com , TIN BOX , 14 , 18/09/0020
216 , MEDUZE564378 , TGBU8060980 , 40HC , T00137 , TRANZGATE EXPRESS PVT LTD , CONTI CORTESIA , FK034A , 04/09/0020 , REL_LKMCL ,  , docs@tranzgate.lk , NON WOVEN FABRIC , 14 , 18/09/0020
217 , MEDUZE581646 , MEDU4911707 , 40HC , C00395 , CHRISSLOGIX PVT LTD , CONTI CORTESIA , FK034A , 04/09/0020 , REL_LKMCL , 94117820100 , irosh.nishantha@chrisslogix.com , WHEEL CHAIR , 14 , 18/09/0020
218 , MEDUZE564428 , TGBU8061353 , 40HC , D00016 , DART GLOBAL LOGISTICS (PVT) LTD , CONTI CORTESIA , FK034A , 04/09/0020 , REL_LKMCL , 94114609600 , chathura.cmb@dartglobal.com , MEDICAL DISPOSABLE , 14 , 18/09/0020
219 , MEDUZE596099 , MEDU2233160 , 20DV , T00470 , TRANSWING LOGISTICS (PVT) LTD. , CONTI CORTESIA , FK034A , 04/09/0020 , REL_LKMCL , 941143826505 , RESHAN@TRANSWING.LK , CALCULATOR , 14 , 18/09/0020
22 , MEDUQ3102512 , GLDU3577764 , 20DV , R00151 , RANK ANIMAL HEALTH PVT LTD , CONTI CORTESIA , FK034A , 04/09/0020 , REL_CICT , 00000 , subratranjanrout76@gmail.com , ASCORBIC ACID , 7 , 11/09/0020
220 , MEDUZE604190 , TGBU8053717 , 40HC , R00540 , REOZONE INTERNATIONAL PVT LTD , CONTI CORTESIA , FK034A , 04/09/0020 , REL_LKMCL ,  , REOZONEINT@GMAIL.COM , PLASTIC TOYS , 14 , 18/09/0020
221 , MEDUZE601246 , GLDU5193407 , 20DV , M00826 , M.S.ENTERPRISES , CONTI CORTESIA , FK034A , 04/09/0020 , REL_LKMCL , 94777227549 , MSENTERPRISES@GMAIL.COM , PVC QUILTED , 14 , 18/09/0020
222 , MEDUZE564352 , TCLU2720667 , 20DV , R00390 , RAJAPAKSA ELECTRICALS (PVT) LTD , CONTI CORTESIA , FK034A , 04/09/0020 , REL_LKMCL , 0372232806 , rajapaksa116@gmail.com , 60 DOZ-NETWORK CABLE , 14 , 18/09/0020
223 , MEDUZE564402 , FFAU2172948 , 40HC , E00318 , ESQUEL SRI LANKA LIMITED , CONTI CORTESIA , FK034A , 04/09/0020 , REL_LKMCL ,  , ThennakoonS@esquel.com , WOVEN FABRIC , 14 , 18/09/0020
224 , MEDUZE591603 , MEDU6494428 , 20DV , G00446 , GALAXO TRADE LANKA (PVT) LTD , CONTI CORTESIA , FK034A , 04/09/0020 , REL_LKMCL , 94753425988 ,  , BLANK DVD EX STOCK , 14 , 18/09/0020
225 , MEDUZE571530 , TGHU9792230 , 40HC , Q00026 , QUALITY IMPEX , CONTI CORTESIA , FK034A , 04/09/0020 , REL_LKMCL , 0094773285895 , CTLIGHTSZN@GMAIL.COM , LIGHTING FIXTURE , 14 , 18/09/0020
226 , MEDUZE576687 , TGBU7860442 , 40HC , A00340 , ASIAN SHIPPING & LOGISTICS PVT LIMITED , CONTI CORTESIA , FK034A , 04/09/0020 , REL_LKMCL , 115349277 , indula.p@asian-logistics.com , TIN BOX , 14 , 18/09/0020
226 , MEDUZE576687 , TGBU8063227 , 40HC , A00340 , ASIAN SHIPPING & LOGISTICS PVT LIMITED , CONTI CORTESIA , FK034A , 04/09/0020 , REL_LKMCL , 115349277 , indula.p@asian-logistics.com , TIN BOX , 14 , 18/09/0020
226 , MEDUZE576687 , TGBU8062956 , 40HC , A00340 , ASIAN SHIPPING & LOGISTICS PVT LIMITED , CONTI CORTESIA , FK034A , 04/09/0020 , REL_LKMCL , 115349277 , indula.p@asian-logistics.com , TIN BOX , 14 , 18/09/0020
227 , MEDUZE580879 , FFAU2168660 , 40HC , H00139 , HANKYU MARITIME PVT LTD , CONTI CORTESIA , FK034A , 04/09/0020 , REL_LKMCL , 94725247247 , support1@hankyuline.com , PVC LEATHER CLOTH , 14 , 18/09/0020
228 , MEDUZE590688 , FFAU2169332 , 40HC , W00330 , WANDSWORTH LOGISTICS (PVT) LTD , CONTI CORTESIA , FK034A , 04/09/0020 , REL_LKMCL , 2323794 , zulfi@wwlogic.com , FURNITURE , 14 , 18/09/0020
229 , MEDUZE586959 , TGBU7863185 , 40HC , R00001 , R.P.C. LOGISTICS LIMITED , CONTI CORTESIA , FK034A , 04/09/0020 , REL_LKMCL , 4736511 , imp.rpcl@arpico.com , PU FOAM OFF CUTS , 14 , 18/09/0020
229 , MEDUZE586959 , TGBU7863122 , 40HC , R00001 , R.P.C. LOGISTICS LIMITED , CONTI CORTESIA , FK034A , 04/09/0020 , REL_LKMCL , 4736511 , imp.rpcl@arpico.com , PU FOAM OFF CUTS , 14 , 18/09/0020
229 , MEDUZE586959 , FSCU6241642 , 40HC , R00001 , R.P.C. LOGISTICS LIMITED , CONTI CORTESIA , FK034A , 04/09/0020 , REL_LKMCL , 4736511 , imp.rpcl@arpico.com , PU FOAM OFF CUTS , 14 , 18/09/0020
229 , MEDUZE586959 , TGBU7863919 , 40HC , R00001 , R.P.C. LOGISTICS LIMITED , CONTI CORTESIA , FK034A , 04/09/0020 , REL_LKMCL , 4736511 , imp.rpcl@arpico.com , PU FOAM OFF CUTS , 14 , 18/09/0020
23 , MEDUQ3101563 , MEDU1447681 , 20DV , L00001 , CAMSO LOADSTAR (PRIVATE) LIMITED , CONTI CORTESIA , FK034A , 04/09/0020 , REL_LKMCL , 94114837960 , sanjeewa.perera@loadstarlk.com , ARTIFICIAL GTAPHITE , 14 , 18/09/0020
230 , MEDUZE594565 , TGBU8060486 , 40HC , G00296 , GLOBACTIV LOGISTICS (PVT) LTD. , CONTI CORTESIA , FK034A , 04/09/0020 , REL_LKMCL , 0777126986 , seaimport@gal.lk , SLIDING DOOR , 14 , 18/09/0020
231 , MEDUZE596065 , FFAU2170966 , 40HC , C00719 , CRESENT COMBINES (PVT) LTD , CONTI CORTESIA , FK034A , 04/09/0020 , REL_LKMCL , 0776477243 , cresentcombines@gmail.com , SOLE , 14 , 18/09/0020
232 , MEDUZE597253 , FFAU2171480 , 40HC , I00160 , IT GALLERY COMPUTERS (PVT) LTD. , CONTI CORTESIA , FK034A , 04/09/0020 , REL_LKSIL , 94112228886 , dilantha@itgallery.lk , UPS AND COMPUTER ACCESSORIES , 14 , 18/09/0020
233 , MEDUZE598293 , TRLU6608124 , 40HC , S00099 , SPEED MARK CONSOLIDATION SERVICE LANKA (PVT) LTD , CONTI CORTESIA , FK034A , 04/09/0020 , REL_LKSIL , 94112686354 , daniel@smtcmb.com , FURNITURE , 14 , 18/09/0020
234 , MEDUZE598319 , FFAU1648182 , 40HC , S00099 , SPEED MARK CONSOLIDATION SERVICE LANKA (PVT) LTD , CONTI CORTESIA , FK034A , 04/09/0020 , REL_LKSIL , 94112686354 , daniel@smtcmb.com , WOODEN BROOM HANDLE , 14 , 18/09/0020
235 , MEDUZE590563 , GLDU3226374 , 20DV , C00086 , CL SYNERGY (PVT) LTD , CONTI CORTESIA , FK034A , 04/09/0020 , REL_LKSIL , 940115300250 , imports@clsynergy.com , 4 WAY CEILING DIFFUSER , 14 , 18/09/0020
236 , MEDUZE586942 , TGBU7861958 , 40HC , O00131 , ONE TEAM EXPRESS (PVT) LTD. , CONTI CORTESIA , FK034A , 04/09/0020 , REL_LKSIL , 94768249627 , csv@oneteamexpress.com , LED LIGHTING , 14 , 18/09/0020
237 , MEDUZE564394 , MEDU7476460 , 40HC , B00326 , BRITA LANKA(PVT),LTD , CONTI CORTESIA , FK034A , 04/09/0020 , REL_LKSIL , 0094777900217 , BRITA_ENT@YAHOO.COM , USB PLAYER , 14 , 18/09/0020
238 , MEDUZE580903 , TGBU7860381 , 40HC , G00124 , GEETHANI ENTERPRISES , CONTI CORTESIA , FK034A , 04/09/0020 , REL_LKSIL , 940773498201 , geethanienterprises@gmail.com , FURNITURE , 14 , 18/09/0020
239 , MEDUZE581638 , MEDU4490830 , 40HC , S00962 , SMS CONTAINER LINE (PVT) LTD , CONTI CORTESIA , FK034A , 04/09/0020 , REL_LKSIL , 94115882918588291 , airmarinecargo@gmail.com , ALUMINUM PROFILES , 14 , 18/09/0020
239 , MEDUZE581638 , MEDU7439235 , 40HC , S00962 , SMS CONTAINER LINE (PVT) LTD , CONTI CORTESIA , FK034A , 04/09/0020 , REL_LKSIL , 94115882918588291 , airmarinecargo@gmail.com , ALUMINUM PROFILES , 14 , 18/09/0020
24 , MEDUQ3094586 , FCIU4330443 , 20DV , B00005 , BENCHMARK LOGISTICS INTERNATIONAL PVT LTD. , CONTI CORTESIA , FK034A , 04/09/0020 , REL_LKSIL , 94112675863 , csv1@benchmarklogistics.com , DEXTROSE MONOHYDRATE , 14 , 18/09/0020
240 , MEDUZE581737 , TGBU7858445 , 40HC , D00017 , DP LOGISTICS (PVT) LTD , CONTI CORTESIA , FK034A , 04/09/0020 , REL_LKSIL , 4723946 , info@dplcom.com , ADULT DIAPERS , 14 , 18/09/0020
241 , MEDUZE583048 , FFAU2172090 , 40HC , S00761 , SCAN DISTRIBUTION CENTRE LANKA (PVT) LTD , CONTI CORTESIA , FK034A , 04/09/0020 , REL_LKSIL , 9411242666660 , joe@scandclanka.com , PLASTIC HANGERS , 14 , 18/09/0020
241 , MEDUZE583048 , MSDU8088493 , 40HC , S00761 , SCAN DISTRIBUTION CENTRE LANKA (PVT) LTD , CONTI CORTESIA , FK034A , 04/09/0020 , REL_LKSIL , 9411242666660 , joe@scandclanka.com , PLASTIC HANGERS , 14 , 18/09/0020
241 , MEDUZE583048 , TGBU8056070 , 40HC , S00761 , SCAN DISTRIBUTION CENTRE LANKA (PVT) LTD , CONTI CORTESIA , FK034A , 04/09/0020 , REL_LKSIL , 9411242666660 , joe@scandclanka.com , PLASTIC HANGERS , 14 , 18/09/0020
241 , MEDUZE583048 , TGBU8061327 , 40HC , S00761 , SCAN DISTRIBUTION CENTRE LANKA (PVT) LTD , CONTI CORTESIA , FK034A , 04/09/0020 , REL_LKSIL , 9411242666660 , joe@scandclanka.com , PLASTIC HANGERS , 14 , 18/09/0020
242 , MEDUZE587684 , TCLU1819790 , 40HC , N00398 , NEOVIEW(PVT) LIMITED , CONTI CORTESIA , FK034A , 04/09/0020 , REL_LKSIL ,  , NEOVIEWLK@YAHOO.COM , COMPUTER ACCESSORIES , 14 , 18/09/0020
243 , MEDUZE589375 , MEDU1898617 , 20DV , W00038 , WORLDGATE EXPRESS LINES LANKA PVT LTD , CONTI CORTESIA , FK034A , 04/09/0020 , REL_LKSIL , 94115759001 , custopmerservice@worldgate.lk , PORTABLE RADIO , 14 , 18/09/0020
243 , MEDUZE589375 , MSCU3539780 , 20DV , W00038 , WORLDGATE EXPRESS LINES LANKA PVT LTD , CONTI CORTESIA , FK034A , 04/09/0020 , REL_LKSIL , 94115759001 , custopmerservice@worldgate.lk , PORTABLE RADIO , 14 , 18/09/0020
244 , MEDUZE589383 , TGHU1812304 , 20DV , E00078 , EAGLE LOGISTICS COLOMBO (PVT) LTD , CONTI CORTESIA , FK034A , 04/09/0020 , REL_LKSIL , 00945300275 , nadeera@eaglelogisticscmb.com , 59 ROLLS BOPP TAPE JUMBO ROLLS - , 14 , 18/09/0020
245 , MEDUZE602913 , MEDU7360716 , 40HC , G00446 , GALAXO TRADE LANKA (PVT) LTD , CONTI CORTESIA , FK034A , 04/09/0020 , REL_LKSIL , 94753425988 ,  , PLASTIC TOYS , 14 , 18/09/0020
246 , MEDUZE602921 , FFAU2173179 , 40HC , G00446 , GALAXO TRADE LANKA (PVT) LTD , CONTI CORTESIA , FK034A , 04/09/0020 , REL_LKSIL , 94753425988 ,  , PLASTIC TOYS , 14 , 18/09/0020
247 , MEDUZE602939 , FFAU2173097 , 40HC , R00540 , REOZONE INTERNATIONAL PVT LTD , CONTI CORTESIA , FK034A , 04/09/0020 , REL_LKSIL ,  , REOZONEINT@GMAIL.COM , PLASTIC TOYS , 14 , 18/09/0020
248 , MEDUZE604224 , TGBU7858830 , 40HC , A00779 , ACCORDIENCE MARKETING PVT LTD , CONTI CORTESIA , FK034A , 04/09/0020 , REL_LKSIL , 773669030 , azeezar20@gmail.com , PLASTIC TOYS , 14 , 18/09/0020
249 , MEDUZE606005 , FFAU2169775 , 40HC , O00056 , OCEAN LINKS LOGISTICS (PVT) LTD , CONTI CORTESIA , FK034A , 04/09/0020 , REL_LKSIL , 2436397 , oceanlinks@sltnet.lk , MULTIMEDIA SPEAKER WITH FM RADIO , 14 , 18/09/0020
25 , MEDUQ3092747 , MEDU1032556 , 20DV , L00106 , LANKA POLYBAGS (PVT)LTD , CONTI CORTESIA , FK034A , 04/09/0020 , REL_LKSIL , 94114322228 , frqgns@gmail.com ,  , 14 , 18/09/0020
250 , MEDUZE604240 , CRSU9174289 , 40HC , A00051 , ACE CARGO (PVT) LTD , CONTI CORTESIA , FK034A , 04/09/0020 , REL_LKSIL ,  , sea.inward@acecargo.lk , RADIO CASSET, RADIO WITH USB/SD/FM , 14 , 18/09/0020
251 , MEDUZE570920 , FFAU1998642 , 40HC , M00978 , MULTI TRANS LOGISTICS PRIVATE LIMITED , CONTI CORTESIA , FK034A , 04/09/0020 , REL_LKSIL , 094117013955 , vasanthan@multitransl.com , PP NONWOVEN MATERIAL WIDTH 63" , 14 , 18/09/0020
252 , MEDUSY688740 , SEGU3692196 , 20DV , P00005 , PETTAH ESSENCE SUPPLIERS , CONTI CORTESIA , FK034A , 04/09/0020 , REL_LKSIL ,  , pettaess@sltnet.lk , 16.5MT SODIUM BENZOATE BP2000 POWDER , 14 , 18/09/0020
253 , MEDUSY646771 , TEMU5318216 , 20DV , S00635 , SHANAZ PLASTIC INDUSTRIES (PVT) LTD , CONTI CORTESIA , FK034A , 04/09/0020 , REL_LKSIL , 372245250 , INFO@SHENAZPLASTIC.LK , POLYETHYLENE TEREPHTHALATE , 14 , 18/09/0020
26 , MEDUQ3091780 , TEMU8198500 , 40HC , D00367 , DISPOWEAR (PVT) LTD. , CONTI CORTESIA , FK034A , 04/09/0020 , REL_LKSIL , 0094777866866 , rickazdn@gmail.com , NON WOVEN FABRIC , 14 , 18/09/0020
27 , MEDUQ3090816 , FFAU1918992 , 40HC , E00299 , EFL GLOBAL FREEPORT (PVT) LTD , CONTI CORTESIA , FK034A , 04/09/0020 , REL_LKSIL , +94114353000 , rananjag@expofrieght.com , PORCELAIN MUG , 14 , 18/09/0020
28 , MEDUQ3089578 , TCLU3034975 , 20DV , F00004 , FREIGHT LINE INTERNATIONAL (PVT) LTD , CONTI CORTESIA , FK034A , 04/09/0020 , REL_LKSIL , 0112344433 , sanda1-@sltmobitel.blackberry.com , GYPSUM CEILING BOARD , 14 , 18/09/0020
28 , MEDUQ3089578 , TRLU8939902 , 20DV , F00004 , FREIGHT LINE INTERNATIONAL (PVT) LTD , CONTI CORTESIA , FK034A , 04/09/0020 , REL_LKSIL , 0112344433 , sanda1-@sltmobitel.blackberry.com , GYPSUM CEILING BOARD , 14 , 18/09/0020
28 , MEDUQ3089578 , CAIU6439482 , 20DV , F00004 , FREIGHT LINE INTERNATIONAL (PVT) LTD , CONTI CORTESIA , FK034A , 04/09/0020 , REL_LKSIL , 0112344433 , sanda1-@sltmobitel.blackberry.com , GYPSUM CEILING BOARD , 14 , 18/09/0020
28 , MEDUQ3089578 , CXDU2103781 , 20DV , F00004 , FREIGHT LINE INTERNATIONAL (PVT) LTD , CONTI CORTESIA , FK034A , 04/09/0020 , REL_LKSIL , 0112344433 , sanda1-@sltmobitel.blackberry.com , GYPSUM CEILING BOARD , 14 , 18/09/0020
28 , MEDUQ3089578 , DFSU2737475 , 20DV , F00004 , FREIGHT LINE INTERNATIONAL (PVT) LTD , CONTI CORTESIA , FK034A , 04/09/0020 , REL_LKSIL , 0112344433 , sanda1-@sltmobitel.blackberry.com , GYPSUM CEILING BOARD , 14 , 18/09/0020
28 , MEDUQ3089578 , TCLU1953284 , 20DV , F00004 , FREIGHT LINE INTERNATIONAL (PVT) LTD , CONTI CORTESIA , FK034A , 04/09/0020 , REL_LKSIL , 0112344433 , sanda1-@sltmobitel.blackberry.com , GYPSUM CEILING BOARD , 14 , 18/09/0020
28 , MEDUQ3089578 , GLDU5136794 , 20DV , F00004 , FREIGHT LINE INTERNATIONAL (PVT) LTD , CONTI CORTESIA , FK034A , 04/09/0020 , REL_LKSIL , 0112344433 , sanda1-@sltmobitel.blackberry.com , GYPSUM CEILING BOARD , 14 , 18/09/0020
28 , MEDUQ3089578 , MEDU6207256 , 20DV , F00004 , FREIGHT LINE INTERNATIONAL (PVT) LTD , CONTI CORTESIA , FK034A , 04/09/0020 , REL_LKSIL , 0112344433 , sanda1-@sltmobitel.blackberry.com , GYPSUM CEILING BOARD , 14 , 18/09/0020
28 , MEDUQ3089578 , TCKU1767744 , 20DV , F00004 , FREIGHT LINE INTERNATIONAL (PVT) LTD , CONTI CORTESIA , FK034A , 04/09/0020 , REL_LKSIL , 0112344433 , sanda1-@sltmobitel.blackberry.com , GYPSUM CEILING BOARD , 14 , 18/09/0020
28 , MEDUQ3089578 , FCIU3591669 , 20DV , F00004 , FREIGHT LINE INTERNATIONAL (PVT) LTD , CONTI CORTESIA , FK034A , 04/09/0020 , REL_LKSIL , 0112344433 , sanda1-@sltmobitel.blackberry.com , GYPSUM CEILING BOARD , 14 , 18/09/0020
29 , MEDUQ3054358 , MEDU5664900 , 20DV , A00655 , ART PAPER TRADERS (PVT) LTD , CONTI CORTESIA , FK034A , 04/09/0020 , REL_LKLIS , 94112341775 , shamali@jripl.com , NCR PAPER BLUE IN REELS , 14 , 18/09/0020
30 , MEDUQ3085592 , FCGU2255030 , 20DV , I00184 , INFINITE REVOLT PRIVATE LTD , CONTI CORTESIA , FK034A , 04/09/0020 , REL_LKLIS , 94777630660 , avfab@me.com , 100% COTTON WHITE FABRIC 35/36" , 14 , 18/09/0020
31 , MEDUQ3087010 , CZZU3740790 , 20DV , M00506 , M&M LOGISTICS (PVT) LTD , CONTI CORTESIA , FK034A , 04/09/0020 , REL_CICT , 94115747747 , seaimports@mmlogi.com , IRON OXIDE RED , 14 , 18/09/0020
31 , MEDUQ3087010 , MEDU6539501 , 20DV , M00506 , M&M LOGISTICS (PVT) LTD , CONTI CORTESIA , FK034A , 04/09/0020 , REL_CICT , 94115747747 , seaimports@mmlogi.com , IRON OXIDE RED , 14 , 18/09/0020
31 , MEDUQ3087010 , CATU2921484 , 20DV , M00506 , M&M LOGISTICS (PVT) LTD , CONTI CORTESIA , FK034A , 04/09/0020 , REL_CICT , 94115747747 , seaimports@mmlogi.com , IRON OXIDE RED , 14 , 18/09/0020
31 , MEDUQ3087010 , CAIU6435893 , 20DV , M00506 , M&M LOGISTICS (PVT) LTD , CONTI CORTESIA , FK034A , 04/09/0020 , REL_CICT , 94115747747 , seaimports@mmlogi.com , IRON OXIDE RED , 14 , 18/09/0020
32 , MEDUQ3087028 , TGBU8013252 , 40HC , M00506 , M&M LOGISTICS (PVT) LTD , CONTI CORTESIA , FK034A , 04/09/0020 , REL_LKTAL , 94115747747 , seaimports@mmlogi.com , MIST-DUSTER , 14 , 18/09/0020
33 , MEDUQ3082946 , TGBU7196190 , 40HC , O00005 , OCEAN LANKA(PRIVATE) LIMITED , CONTI CORTESIA , FK034A , 04/09/0020 , REL_LKTAL , 94112465500 , dhammika@oceanlanka.lk , 40S/1 60PCT COTTON 40PCT MODAL YARN , 14 , 18/09/0020
34 , MEDUQ3106471 , SEGU2951820 , 20DV , J00042 , JIFFY PRODUCTS S.L. PVT LTD , CONTI CORTESIA , FK034A , 04/09/0020 , REL_LKLIS ,  , wasanthi.nagasena@jiffygroup.com , PP SPUNBOND NONEWOVEN 9GSM , 14 , 18/09/0020
35 , MEDUQ3107958 , TCLU3026373 , 20DV , C00126 , CAUSEWAY PAINTS LANKA PVT LTD , CONTI CORTESIA , FK034A , 04/09/0020 , REL_CICT , 0094382240040 , couseway@sltnet.lk , 24MTS TITANIUM DIOXIDE RUTILE R868 , 14 , 18/09/0020
35 , MEDUQ3107958 , FCIU5799271 , 20DV , C00126 , CAUSEWAY PAINTS LANKA PVT LTD , CONTI CORTESIA , FK034A , 04/09/0020 , REL_CICT , 0094382240040 , couseway@sltnet.lk , 24MTS TITANIUM DIOXIDE RUTILE R868 , 14 , 18/09/0020
36 , MEDUQ3130836 , IPXU3845341 , 20DV , C00639 , CHINA STATE CON ENG COR LTD , CONTI CORTESIA , FK034A , 04/09/0020 , REL_LKLIS , 94776298002 , zhengyan.q@qq.com , GUARDRAIL , 14 , 18/09/0020
36 , MEDUQ3130836 , MSCU6615708 , 20DV , C00639 , CHINA STATE CON ENG COR LTD , CONTI CORTESIA , FK034A , 04/09/0020 , REL_LKLIS , 94776298002 , zhengyan.q@qq.com ,  , 14 , 18/09/0020
36 , MEDUQ3130836 , MEDU1371708 , 20DV , C00639 , CHINA STATE CON ENG COR LTD , CONTI CORTESIA , FK034A , 04/09/0020 , REL_LKLIS , 94776298002 , zhengyan.q@qq.com , GUARDRAIL , 14 , 18/09/0020
36 , MEDUQ3130836 , CAIU3180438 , 20DV , C00639 , CHINA STATE CON ENG COR LTD , CONTI CORTESIA , FK034A , 04/09/0020 , REL_LKLIS , 94776298002 , zhengyan.q@qq.com , GUARDRAIL , 14 , 18/09/0020
37 , MEDUQ3131735 , SEGU3051274 , 20DV , S01294 , STARSTRUCK LINE (PVT) LTD , CONTI CORTESIA , FK034A , 04/09/0020 , REL_LKLIS , 94117874500 , JUDYTON@163.COM , TEXTILE FABRICS , 14 , 18/09/0020
38 , MEDUQ3131982 , FFAU1692056 , 40HC , C00585 , CHEC PORT CITY COLOMBO (PVT) LTD , CONTI CORTESIA , FK034A , 04/09/0020 , REL_LKTAL , 0094765508888 , enquiry_cpcc@chec.lk , PREFAB HOUSE , 14 , 18/09/0020
38 , MEDUQ3131982 , FFAU1693047 , 40HC , C00585 , CHEC PORT CITY COLOMBO (PVT) LTD , CONTI CORTESIA , FK034A , 04/09/0020 , REL_LKTAL , 0094765508888 , enquiry_cpcc@chec.lk , PREFAB HOUSE , 14 , 18/09/0020
38 , MEDUQ3131982 , FFAU1334957 , 40HC , C00585 , CHEC PORT CITY COLOMBO (PVT) LTD , CONTI CORTESIA , FK034A , 04/09/0020 , REL_LKTAL , 0094765508888 , enquiry_cpcc@chec.lk , PREFAB HOUSE , 14 , 18/09/0020
38 , MEDUQ3131982 , FFAU1701158 , 40HC , C00585 , CHEC PORT CITY COLOMBO (PVT) LTD , CONTI CORTESIA , FK034A , 04/09/0020 , REL_LKTAL , 0094765508888 , enquiry_cpcc@chec.lk , PREFAB HOUSE , 14 , 18/09/0020
38 , MEDUQ3131982 , FFAU1700383 , 40HC , C00585 , CHEC PORT CITY COLOMBO (PVT) LTD , CONTI CORTESIA , FK034A , 04/09/0020 , REL_LKTAL , 0094765508888 , enquiry_cpcc@chec.lk , PREFAB HOUSE , 14 , 18/09/0020
39 , MEDUQ3133715 , CARU2211905 , 20DV , L00136 , LANKA SHIPPING & LOGISTICS(PVT) LTD , CONTI CORTESIA , FK034A , 04/09/0020 , REL_LKLIS ,  , iresha@lankaship.lk , PREPAINTED ALU-ZINC STEEL COILS , 14 , 18/09/0020
39 , MEDUQ3133715 , DFSU2668055 , 20DV , L00136 , LANKA SHIPPING & LOGISTICS(PVT) LTD , CONTI CORTESIA , FK034A , 04/09/0020 , REL_LKLIS ,  , iresha@lankaship.lk , PREPAINTED ALU-ZINC STEEL COILS , 14 , 18/09/0020
39 , MEDUQ3133715 , MSDU1210110 , 20DV , L00136 , LANKA SHIPPING & LOGISTICS(PVT) LTD , CONTI CORTESIA , FK034A , 04/09/0020 , REL_LKLIS ,  , iresha@lankaship.lk , PREPAINTED ALU-ZINC STEEL COILS , 14 , 18/09/0020
40 , MEDUQ3134226 , FCIU3674681 , 20DV , D00017 , DP LOGISTICS (PVT) LTD , CONTI CORTESIA , FK034A , 04/09/0020 , REL_LKLIS , 4723946 , info@dplcom.com , UPRIGHT CHILLERS , 14 , 18/09/0020
41 , MEDUQ3121850 , MEDU1162539 , 20DV , M00078 , MAC SUPPLY CHAIN SOLUTIONS (PVT) LTD , CONTI CORTESIA , FK034A , 04/09/0020 , REL_LKLIS , 112309200 , dilshanm@macisc.com ,  , 14 , 18/09/0020
42 , MEDUQ3139720 , MEDU6680016 , 20DV , E00078 , EAGLE LOGISTICS COLOMBO (PVT) LTD , CONTI CORTESIA , FK034A , 04/09/0020 , REL_LKLIS , 00945300275 , nadeera@eaglelogisticscmb.com , STEEL GRADE 550 , 14 , 18/09/0020
42 , MEDUQ3139720 , CXDU1398754 , 20DV , E00078 , EAGLE LOGISTICS COLOMBO (PVT) LTD , CONTI CORTESIA , FK034A , 04/09/0020 , REL_LKLIS , 00945300275 , nadeera@eaglelogisticscmb.com , STEEL GRADE 550 , 14 , 18/09/0020
42 , MEDUQ3139720 , TCLU1950876 , 20DV , E00078 , EAGLE LOGISTICS COLOMBO (PVT) LTD , CONTI CORTESIA , FK034A , 04/09/0020 , REL_LKLIS , 00945300275 , nadeera@eaglelogisticscmb.com , STEEL GRADE 550 , 14 , 18/09/0020
42 , MEDUQ3139720 , CAIU6860059 , 20DV , E00078 , EAGLE LOGISTICS COLOMBO (PVT) LTD , CONTI CORTESIA , FK034A , 04/09/0020 , REL_LKLIS , 00945300275 , nadeera@eaglelogisticscmb.com , STEEL GRADE 550 , 14 , 18/09/0020
42 , MEDUQ3139720 , TCKU1794117 , 20DV , E00078 , EAGLE LOGISTICS COLOMBO (PVT) LTD , CONTI CORTESIA , FK034A , 04/09/0020 , REL_LKLIS , 00945300275 , nadeera@eaglelogisticscmb.com , STEEL GRADE 550 , 14 , 18/09/0020
42 , MEDUQ3139720 , MEDU5326775 , 20DV , E00078 , EAGLE LOGISTICS COLOMBO (PVT) LTD , CONTI CORTESIA , FK034A , 04/09/0020 , REL_LKLIS , 00945300275 , nadeera@eaglelogisticscmb.com , STEEL GRADE 550 , 14 , 18/09/0020
42 , MEDUQ3139720 , MSDU1007822 , 20DV , E00078 , EAGLE LOGISTICS COLOMBO (PVT) LTD , CONTI CORTESIA , FK034A , 04/09/0020 , REL_LKLIS , 00945300275 , nadeera@eaglelogisticscmb.com , STEEL GRADE 550 , 14 , 18/09/0020
43 , MEDUQ3107230 , MEDU3412489 , 20DV , N00440 , NORFOLK FOODS (PVT) LTD , CONTI CORTESIA , FK034A , 04/09/0020 , REL_LKLIS , 94772947761 , ekanayake@norfolk.lk , SOY PROTEIN ISOLATE , 14 , 18/09/0020
44 , MEDUQ3112800 , TGBU7300181 , 40HC , L00286 , LANKA SHAKTHI TECHNOLOGIES (PVT) LTD , CONTI CORTESIA , FK034A , 04/09/0020 , REL_LKTAL , +94 112799700 , gihan@lankashakthi.com , SOLAR PANNELS , 14 , 18/09/0020
45 , MEDUQ3136114 , MSCU1581760 , 20DV , R00541 , RONGHE INTERNATIONAL (PVT)  LTD , CONTI CORTESIA , FK034A , 04/09/0020 , REL_LKLIS , 0771311189 , 10512242@QQ.com , CONSTRUTIONS MATERIAL , 14 , 18/09/0020
46 , MEDUQ3090584 , MEDU3876427 , 20DV , H00177 , HAYLEYS FREE ZONE LIMITED , CONTI CORTESIA , FK034A , 04/09/0020 , REL_LKLIS , 94112255030 , Darshana.Chamil@advantis.world , AMMONIUM BIFLUORIDE 98% , 7 , 11/09/0020
47 , MEDUQ3042619 , FFAU1924470 , 40HC , C00447 , COOLMAN REFRIGERATION (PVT) LTD. , CONTI CORTESIA , FK034A , 04/09/0020 , REL_LKTAL ,  , negombocoolman@yahoo.com , EVAPORATION CONDENSER , 14 , 18/09/0020
48 , MEDUQ3117155 , TGHU0546616 , 20DV , D00017 , DP LOGISTICS (PVT) LTD , CONTI CORTESIA , FK034A , 04/09/0020 , REL_LKSIL , 4723946 , info@dplcom.com , KIT CAT SOYACLUMP CAT LITTER , 14 , 18/09/0020
49 , MEDUQ3108519 , MEDU6477797 , 20DV , K00387 , KINGSTON IMPORTS TRADING (PVT) LTD , CONTI CORTESIA , FK034A , 04/09/0020 , REL_LKSIL , 94772226226 , Shamil13@hotmail.com , PET MONOFILAMENT BRISTLE , 14 , 18/09/0020
50 , MEDUQ3111364 , DFOU2040090 , 20DV , D00361 , DPO LANKA (PRIVATE) LIMITED , CONTI CORTESIA , FK034A , 04/09/0020 , REL_LKSIL , 94112982656 , dishan.c@dpointernational.com , ISOLATED SOY PROTEIN EMULSION GRADE , 14 , 18/09/0020
51 , MEDUQ3113279 , FBIU0406364 , 20DV , V00157 , VBOARD LANKA (PRIVATE ) LIMITED , CONTI CORTESIA , FK034A , 04/09/0020 , REL_LKSIL , 0777360130 , Imports@vboardlanka.com , GYPSUM CEILING BOARD , 14 , 18/09/0020
51 , MEDUQ3113279 , FCIU4589455 , 20DV , V00157 , VBOARD LANKA (PRIVATE ) LIMITED , CONTI CORTESIA , FK034A , 04/09/0020 , REL_LKSIL , 0777360130 , Imports@vboardlanka.com , GYPSUM CEILING BOARD , 14 , 18/09/0020
51 , MEDUQ3113279 , MEDU2454664 , 20DV , V00157 , VBOARD LANKA (PRIVATE ) LIMITED , CONTI CORTESIA , FK034A , 04/09/0020 , REL_LKSIL , 0777360130 , Imports@vboardlanka.com , GYPSUM CEILING BOARD , 14 , 18/09/0020
51 , MEDUQ3113279 , MEDU1781929 , 20DV , V00157 , VBOARD LANKA (PRIVATE ) LIMITED , CONTI CORTESIA , FK034A , 04/09/0020 , REL_LKSIL , 0777360130 , Imports@vboardlanka.com , GYPSUM CEILING BOARD , 14 , 18/09/0020
51 , MEDUQ3113279 , MEDU3438082 , 20DV , V00157 , VBOARD LANKA (PRIVATE ) LIMITED , CONTI CORTESIA , FK034A , 04/09/0020 , REL_LKSIL , 0777360130 , Imports@vboardlanka.com , GYPSUM CEILING BOARD , 14 , 18/09/0020
51 , MEDUQ3113279 , TCKU2257684 , 20DV , V00157 , VBOARD LANKA (PRIVATE ) LIMITED , CONTI CORTESIA , FK034A , 04/09/0020 , REL_LKSIL , 0777360130 , Imports@vboardlanka.com , GYPSUM CEILING BOARD , 14 , 18/09/0020
51 , MEDUQ3113279 , MEDU1141691 , 20DV , V00157 , VBOARD LANKA (PRIVATE ) LIMITED , CONTI CORTESIA , FK034A , 04/09/0020 , REL_LKSIL , 0777360130 , Imports@vboardlanka.com , GYPSUM CEILING BOARD , 14 , 18/09/0020
51 , MEDUQ3113279 , IPXU3847391 , 20DV , V00157 , VBOARD LANKA (PRIVATE ) LIMITED , CONTI CORTESIA , FK034A , 04/09/0020 , REL_LKSIL , 0777360130 , Imports@vboardlanka.com , GYPSUM CEILING BOARD , 14 , 18/09/0020
51 , MEDUQ3113279 , GLDU9391735 , 20DV , V00157 , VBOARD LANKA (PRIVATE ) LIMITED , CONTI CORTESIA , FK034A , 04/09/0020 , REL_LKSIL , 0777360130 , Imports@vboardlanka.com , GYPSUM CEILING BOARD , 14 , 18/09/0020
51 , MEDUQ3113279 , MEDU1000184 , 20DV , V00157 , VBOARD LANKA (PRIVATE ) LIMITED , CONTI CORTESIA , FK034A , 04/09/0020 , REL_LKSIL , 0777360130 , Imports@vboardlanka.com , GYPSUM CEILING BOARD , 14 , 18/09/0020
52 , MEDUQ3113972 , MSCU2593051 , 20DV , N00187 , NIPPON PAINT LANKA (PVT)LTD , CONTI CORTESIA , FK034A , 04/09/0020 , REL_CICT , 0094414933530 , rasikae@nipponpaint.com.lk , TITANIUM DIOXIDE SR-2377 , 14 , 18/09/0020
53 , MEDUQ3113980 , GLDU5712014 , 20DV , K00100 , KANNAN & CO , CONTI CORTESIA , FK034A , 04/09/0020 , REL_CICT ,  , kannanco@sltnet.lk , MAGENSIUM SULFATE HEPTHYDRATE , 14 , 18/09/0020
54 , MEDUQ3114269 , MSDU1023401 , 20DV , R00357 , RADIANT LOGISTICS COLOMBO (PVT) LTD. , CONTI CORTESIA , FK034A , 04/09/0020 , REL_LKSIL , 0117817818 , Shanaka@radiantlogisticscmb.com ,  , 14 , 18/09/0020
55 , MEDUQ3114913 , MSDU7832738 , 40HC , S01236 , SYDNEY IMPEX LANKA (PVT) LTD. , CONTI CORTESIA , FK034A , 04/09/0020 , REL_LKSIL , 94715277997 , sydney.impex19@gmail.com , PLASTIC TOYS , 14 , 18/09/0020
56 , MEDUQ3115092 , MEDU1548563 , 20DV , B00087 , BASF LANKA (PVT) LTD , CONTI CORTESIA , FK034A , 04/09/0020 , REL_CICT , 114799200 , kusumsanjaya.siriwardena@basf.com , 12 MTS SODIUM GLUCONATE , 14 , 18/09/0020
57 , MEDUQ3113741 , MSCU3476825 , 20DV , S01190 , SIGIRI TRADERS , CONTI CORTESIA , FK034A , 04/09/0020 , REL_LKSIL , 0094112544956 , 305868660@qq.com , 100% COTTON FABRIC 35/36" , 14 , 18/09/0020
58 , MEDUQ3093174 , TCKU1688239 , 20DV , M00025 , MARINE TRANSPORT SERVICES PVT LTD , CONTI CORTESIA , FK034A , 04/09/0020 , REL_JCT , 5221221 , kumara@marine.lk , NPK BLUE GRANULAR FERTILIZER , 14 , 18/09/0020
58 , MEDUQ3093174 , MEDU2423072 , 20DV , M00025 , MARINE TRANSPORT SERVICES PVT LTD , CONTI CORTESIA , FK034A , 04/09/0020 , REL_JCT , 5221221 , kumara@marine.lk , NPK BLUE GRANULAR FERTILIZER , 14 , 18/09/0020
59 , MEDUQ3181029 , MEDU7172690 , 40HC , S00831 , SAKURA TRADING PVT LIMITED , CONTI CORTESIA , FK034A , 04/09/0020 , REL_LKSIL , 94112327558 , SAKURATRADING@GMAIL.COM , TEXTILE FABRICS , 14 , 18/09/0020
60 , MEDUQ3161930 , SEGU6923154 , 40HC , S00600 , SUN INDUSTRIES (PVT) LTD. , CONTI CORTESIA , FK034A , 04/09/0020 , REL_LKSIL ,  , paper@eswaran.com , NONWOVEN FABRIC , 7 , 11/09/0020
61 , MEDUQ3206370 , MEDU6309345 , 20DV , A00105 , AGILITY LOGISTICS (PVT) LTD , CONTI CORTESIA , FK034A , 04/09/0020 , REL_JCT , 4703200 , supun.malimage@agilitylogistics.lk , CALCIUM CHLORIDE , 14 , 18/09/0020
62 , MEDUQ3210117 , FCIU3986503 , 20DV , R00357 , RADIANT LOGISTICS COLOMBO (PVT) LTD. , CONTI CORTESIA , FK034A , 04/09/0020 , REL_JCT , 0117817818 , Shanaka@radiantlogisticscmb.com , MELAMINE 99.5%MIN. , 14 , 18/09/0020
63 , MEDUQ3201868 , TGBU2747140 , 20DV , F00318 , FABRIC LANKA , CONTI CORTESIA , FK034A , 04/09/0020 , REL_LKSIL , 0094777321271 , BOBSONG@163.COM , TEXTILE FABRIC , 14 , 18/09/0020
64 , MEDUQ3195201 , MEDU6368230 , 20DV , B00005 , BENCHMARK LOGISTICS INTERNATIONAL PVT LTD. , CONTI CORTESIA , FK034A , 04/09/0020 , REL_LKSIL , 94112675863 , csv1@benchmarklogistics.com , BRUSH CUTTER , 14 , 18/09/0020
65 , MEDUQ3177936 , TRHU1563630 , 20DV , I00255 , IDEA CHEMICALS (PVT) LTD , CONTI CORTESIA , FK034A , 04/09/0020 , REL_LKSIL , 0112527777 , hemal@ideametals.com , CHLORINATED POLYETHYLENE , 7 , 11/09/0020
66 , MEDUQ3194683 , MEDU7814402 , 40HC , H00333 , HIVETZ NUTRI PVT LTD , CONTI CORTESIA , FK034A , 04/09/0020 , REL_LKSIL , 94115940059 , HIVETZ.LK@GMAIL.COM , L-LYSINE HCL 98.5% , 7 , 11/09/0020
66 , MEDUQ3194683 , TCLU7740141 , 40HC , H00333 , HIVETZ NUTRI PVT LTD , CONTI CORTESIA , FK034A , 04/09/0020 , REL_LKSIL , 94115940059 , HIVETZ.LK@GMAIL.COM , L-LYSINE HCL 98.5% , 7 , 11/09/0020
67 , MEDUQ3190830 , MSDU1101211 , 20DV , L00317 , LALRO STEEL FABRICATION (PVT) LTD. , CONTI CORTESIA , FK034A , 04/09/0020 , REL_LKSIL , 940114990000 , lalrosheel@yahoo.com , PREPAINTED GALVALUME STEEL COILS , 14 , 18/09/0020
67 , MEDUQ3190830 , MEDU5875203 , 20DV , L00317 , LALRO STEEL FABRICATION (PVT) LTD. , CONTI CORTESIA , FK034A , 04/09/0020 , REL_LKSIL , 940114990000 , lalrosheel@yahoo.com , PREPAINTED GALVALUME STEEL COILS , 14 , 18/09/0020
68 , MEDUQ3218524 , GLDU5204538 , 20DV , A00907 , AKAS MARKETING (PRIVATE) LIMITED , CONTI CORTESIA , FK034A , 04/09/0020 , REL_LKSIL , 0770878330 , amilark@hotmail.com , PVC CLING WRAP , 14 , 18/09/0020
69 , MEDUQ3189204 , TRHU1263037 , 20DV , C00109 , CIC FEEDS PVT LTD , CONTI CORTESIA , FK034A , 04/09/0020 , REL_LKSIL , 0094114830990 , nilan@cicfeeds.lk , CHOLINE CHLORIDE 60% CORN COB , 14 , 18/09/0020
70 , MEDUQ3187398 , MEDU6828274 , 20DV , M00091 , MOREX LANKA PRIVATE LIMITED , CONTI CORTESIA , FK034A , 04/09/0020 , REL_LKSIL , 941149361412 , commercial@morexlanka.com , E GLASS CHOPPED STRAND MAT , 14 , 18/09/0020
71 , MEDUQ3186945 , MSCU6932507 , 20DV , S01131 , SILKWAY CARGO (PVT) LTD , CONTI CORTESIA , FK034A , 04/09/0020 , REL_LKSIL , 94115541541 , surani_silkway@sltnet.lk , ALUMINIUM COMPOSITE PANEL , 14 , 18/09/0020
71 , MEDUQ3186945 , DFSU2748839 , 20DV , S01131 , SILKWAY CARGO (PVT) LTD , CONTI CORTESIA , FK034A , 04/09/0020 , REL_LKSIL , 94115541541 , surani_silkway@sltnet.lk , ALUMINIUM COMPOSITE PANEL , 14 , 18/09/0020
71 , MEDUQ3186945 , CAIU6216236 , 20DV , S01131 , SILKWAY CARGO (PVT) LTD , CONTI CORTESIA , FK034A , 04/09/0020 , REL_LKSIL , 94115541541 , surani_silkway@sltnet.lk , ALUMINIUM COMPOSITE PANEL , 14 , 18/09/0020
72 , MEDUQ3181516 , GLDU3555810 , 20DV , S01286 , SKYLINE IMPEX (PVT) LTD , CONTI CORTESIA , FK034A , 04/09/0020 , REL_LKSIL , 00940757017760 , linesky049@gmail.com , ALUMINUM COMPOSITE PANEL , 14 , 18/09/0020
73 , MEDUQ3193339 , MSDU7050298 , 40HC , D00332 , DADAS , CONTI CORTESIA , FK034A , 04/09/0020 , REL_LKMCL , 94112327558 , AMY.SHI@KAIMEI56.COM ,  , 14 , 18/09/0020
74 , MEDUQ3142021 , SEGU6252056 , 40HC , D00017 , DP LOGISTICS (PVT) LTD , CONTI CORTESIA , FK034A , 04/09/0020 , REL_LKMCL , 4723946 , info@dplcom.com ,  , 14 , 18/09/0020
74 , MEDUQ3142021 , MEDU2607038 , 20DV , D00017 , DP LOGISTICS (PVT) LTD , CONTI CORTESIA , FK034A , 04/09/0020 , REL_LKMCL , 4723946 , info@dplcom.com , PERPORATED SS EMBOSE NONWOVEN , 14 , 18/09/0020
74 , MEDUQ3142021 , MEDU5847979 , 20DV , D00017 , DP LOGISTICS (PVT) LTD , CONTI CORTESIA , FK034A , 04/09/0020 , REL_LKMCL , 4723946 , info@dplcom.com , REFRIGERATOR COMPRESSORS WITH STANDARD ACCESSORIES , 14 , 18/09/0020
74 , MEDUQ3142021 , TCKU3860774 , 20DV , D00017 , DP LOGISTICS (PVT) LTD , CONTI CORTESIA , FK034A , 04/09/0020 , REL_LKMCL , 4723946 , info@dplcom.com , GYPSUM BOARD , 14 , 18/09/0020
74 , MEDUQ3142021 , MAGU5133145 , 40HC , D00017 , DP LOGISTICS (PVT) LTD , CONTI CORTESIA , FK034A , 04/09/0020 , REL_LKMCL , 4723946 , info@dplcom.com ,  , 14 , 18/09/0020
74 , MEDUQ3142021 , MEDU4841364 , 40HC , D00017 , DP LOGISTICS (PVT) LTD , CONTI CORTESIA , FK034A , 04/09/0020 , REL_LKMCL , 4723946 , info@dplcom.com ,  , 14 , 18/09/0020
75 , MEDUQ3131073 , MEDU5209953 , 20DV , O00005 , OCEAN LANKA(PRIVATE) LIMITED , CONTI CORTESIA , FK034A , 04/09/0020 , REL_LKMCL , 94112465500 , dhammika@oceanlanka.lk , MODAL YARN , 14 , 18/09/0020
76 , MEDUQ3132147 , MSCU3179811 , 20DV , K00067 , K.A.G. ASSOCIATES LIMITED , CONTI CORTESIA , FK034A , 04/09/0020 , REL_LKMCL , 4 , naveen7@sltnet.lk , MOTORCYCLE SPARE PARTS , 14 , 18/09/0020
77 , MEDUQ3132121 , MSCU3938477 , 20DV , P00005 , PETTAH ESSENCE SUPPLIERS , CONTI CORTESIA , FK034A , 04/09/0020 , REL_LKMCL ,  , pettaess@sltnet.lk , AMMONIUM BICARBONATE FOOD GRADE , 14 , 18/09/0020
78 , MEDUQ3182167 , MEDU1122578 , 20DV , G00103 , GLASS HOUSE , CONTI CORTESIA , FK034A , 04/09/0020 , REL_LKLIS , 94315622612 ,  , 1.8MM CLEAR SHEET GLASS , 7 , 11/09/0020
78 , MEDUQ3182167 , MEDU2675460 , 20DV , G00103 , GLASS HOUSE , CONTI CORTESIA , FK034A , 04/09/0020 , REL_LKLIS , 94315622612 ,  , 1.8MM CLEAR SHEET GLASS , 7 , 11/09/0020
78 , MEDUQ3182167 , GLDU3943689 , 20DV , G00103 , GLASS HOUSE , CONTI CORTESIA , FK034A , 04/09/0020 , REL_LKLIS , 94315622612 ,  , 1.8MM CLEAR SHEET GLASS , 7 , 11/09/0020
79 , MEDUQ3182159 , FCIU3911886 , 20DV , S00166 , S G INDUSTRIES , CONTI CORTESIA , FK034A , 04/09/0020 , REL_LKLIS , 9412572404 , sgiceylonglass@gmail.com , 1.8MM CLEAR SHEET GLASS , 7 , 11/09/0020
79 , MEDUQ3182159 , MEDU1945745 , 20DV , S00166 , S G INDUSTRIES , CONTI CORTESIA , FK034A , 04/09/0020 , REL_LKLIS , 9412572404 , sgiceylonglass@gmail.com , 1.8MM CLEAR SHEET GLASS , 7 , 11/09/0020
80 , MEDUQ3133244 , MEDU2085571 , 20DV , A00848 , ARALIYA AGRO HOLDING (PVT) LTD , CONTI CORTESIA , FK034A , 04/09/0020 , REL_JCT ,  , GAMININ11@GMAIL.COM , MAGNESIUM  SILICATE , 14 , 18/09/0020
80 , MEDUQ3133244 , TEMU2819662 , 20DV , A00848 , ARALIYA AGRO HOLDING (PVT) LTD , CONTI CORTESIA , FK034A , 04/09/0020 , REL_JCT ,  , GAMININ11@GMAIL.COM , MAGNESIUM  SILICATE , 14 , 18/09/0020
80 , MEDUQ3133244 , MEDU1212516 , 20DV , A00848 , ARALIYA AGRO HOLDING (PVT) LTD , CONTI CORTESIA , FK034A , 04/09/0020 , REL_JCT ,  , GAMININ11@GMAIL.COM , MAGNESIUM  SILICATE , 14 , 18/09/0020
80 , MEDUQ3133244 , INBU3762333 , 20DV , A00848 , ARALIYA AGRO HOLDING (PVT) LTD , CONTI CORTESIA , FK034A , 04/09/0020 , REL_JCT ,  , GAMININ11@GMAIL.COM , MAGNESIUM  SILICATE , 14 , 18/09/0020
81 , MEDUQ3181987 , MEDU4998749 , 40HC , A00629 , ARAVINDS(PVT)LTD , CONTI CORTESIA , FK034A , 04/09/0020 , REL_LKSIL , 942384031 , aravinds1aravinds@gmail.com , ADULT DIAPERS , 7 , 11/09/0020
82 , MEDUQ3137393 , MEDU1051900 , 20DV , D00002 , DEVI TRADING COMPANY , CONTI CORTESIA , FK034A , 04/09/0020 , REL_LKSIL , 94112437453 , DEVI@DEVITRADING.COM , POLY ALUMINIUM CHLORIDE , 14 , 18/09/0020
82 , MEDUQ3137393 , MEDU2085761 , 20DV , D00002 , DEVI TRADING COMPANY , CONTI CORTESIA , FK034A , 04/09/0020 , REL_LKSIL , 94112437453 , DEVI@DEVITRADING.COM , POLY ALUMINIUM CHLORIDE , 14 , 18/09/0020
83 , MEDUQ3154208 , MSDU1184915 , 20DV , F00119 , F I HOLDING , CONTI CORTESIA , FK034A , 04/09/0020 , REL_JCT , 94115299441 , fiholding@sltnet.lk , CITRIC ACID MONOHYDRATE , 14 , 18/09/0020
84 , MEDUQ3183462 , FBLU0074773 , 40HC , F00003 , FAST TRANSIT LOGISTICS (PVT) LTD , CONTI CORTESIA , FK034A , 04/09/0020 , REL_LKMCL , 2676120/4. 0773077836 , docs@fasttransit.lk , BALLAST WATER MANAGEMENT , 7 , 11/09/0020
85 , MEDUQ3220595 , MEDU1199610 , 20DV , E00068 , EVERLIGHT TEXTILE IND.(PVT)LTD , CONTI CORTESIA , FK034A , 04/09/0020 , REL_LKMCL , 94112445123 , csftsha_cn@163.com , 100% POLYESTER FABRIC 90" , 14 , 18/09/0020
86 , MEDUQ3127089 , TGBU2756287 , 20DV , M01054 , MANCHIEE DE COCO PRODUCTS , CONTI CORTESIA , FK034A , 04/09/0020 , REL_LKMCL ,  , info@manchiee.com , MALTODEXTRIN , 14 , 18/09/0020
87 , MEDUQ3211115 , MEDU2172655 , 20DV , E00025 , EDINBOROUGH PRODUCTS PVT LTD , CONTI CORTESIA , FK034A , 04/09/0020 , REL_LKMCL , 117326326 , info@edinboroughfoods.com , MONSODIUM GLUTAMATE , 7 , 11/09/0020
88 , MEDUQ3222815 , FCIU6461150 , 20DV , C00585 , CHEC PORT CITY COLOMBO (PVT) LTD , CONTI CORTESIA , FK034A , 04/09/0020 , REL_LKMCL , 0094765508888 , enquiry_cpcc@chec.lk ,  , 14 , 18/09/0020
89 , MEDUQ3183553 , TGBU2747198 , 20DV , F00015 , FS TRADERS PVT LTD , CONTI CORTESIA , FK034A , 04/09/0020 , REL_LKMCL , 94112459460 , fs_traders@hotmail.com , MONOSODIUM GLUTAMATE , 7 , 11/09/0020
90 , MEDUQ3199427 , TEMU5456112 , 20DV , R00039 , ROYAL CERAMICS LANKA PLC , CONTI CORTESIA , FK034A , 04/09/0020 , REL_LKMCL ,  , ho.gen@rcl.lk , 92% ALUMINA BRICKS FOR BALL MILL , 7 , 11/09/0020
91 , MEDUQ3222443 , GLDU3450738 , 20DV , C00108 , CHRISTIC LANKA POLYMERS PVT LTD , CONTI CORTESIA , FK034A , 04/09/0020 , REL_LKMCL , 112382242 , finance@cdplanka.lk , PROPYLENE GLYCOL TECH GRADE , 7 , 11/09/0020
91 , MEDUQ3222443 , MSCU6422870 , 20DV , C00108 , CHRISTIC LANKA POLYMERS PVT LTD , CONTI CORTESIA , FK034A , 04/09/0020 , REL_LKMCL , 112382242 , finance@cdplanka.lk , PROPYLENE GLYCOL TECH GRADE , 7 , 11/09/0020
91 , MEDUQ3222443 , FCIU5516303 , 20DV , C00108 , CHRISTIC LANKA POLYMERS PVT LTD , CONTI CORTESIA , FK034A , 04/09/0020 , REL_LKMCL , 112382242 , finance@cdplanka.lk , PROPYLENE GLYCOL TECH GRADE , 7 , 11/09/0020
92 , MEDUQ3227566 , MEDU8759104 , 40HC , P00546 , PIRIPUN PROPERTY HOLDINGS (PVT) LTD , CONTI CORTESIA , FK034A , 04/09/0020 , REL_LKSIL ,  , METTA@PUNSIRIGEMS.COM , HYDRAULIC SYSTEM TWO POST PARKING LIFTS , 7 , 11/09/0020
93 , MEDUQ3202601 , MSDU7928640 , 40HC , L00354 , LUCKY INDUSTRIES , CONTI CORTESIA , FK034A , 04/09/0020 , REL_LKSIL , 0094-114-513100 , AFKAR@LUCKY.LK , FABRIC , 7 , 11/09/0020
94 , MEDUQ3142112 , MEDU1515636 , 20DV , L00001 , CAMSO LOADSTAR (PRIVATE) LIMITED , CONTI CORTESIA , FK034A , 04/09/0020 , REL_LKSIL , 94114837960 , sanjeewa.perera@loadstarlk.com , ARTIFICIAL GRAPHITE 18.00MT , 14 , 18/09/0020
95 , MEDUQ3199377 , MEDU3793657 , 20DV , S01111 , SPECIOUS BIZZ (PVT) LTD , CONTI CORTESIA , FK034A , 04/09/0020 , REL_LKSIL , 0094112323829 , ep3@entp-post.com , GYPSUM BOARD , 14 , 18/09/0020
95 , MEDUQ3199377 , TRLU8887373 , 20DV , S01111 , SPECIOUS BIZZ (PVT) LTD , CONTI CORTESIA , FK034A , 04/09/0020 , REL_LKSIL , 0094112323829 , ep3@entp-post.com , GYPSUM BOARD , 14 , 18/09/0020
95 , MEDUQ3199377 , CRXU3317928 , 20DV , S01111 , SPECIOUS BIZZ (PVT) LTD , CONTI CORTESIA , FK034A , 04/09/0020 , REL_LKSIL , 0094112323829 , ep3@entp-post.com , GYPSUM BOARD , 14 , 18/09/0020
95 , MEDUQ3199377 , MEDU3768042 , 20DV , S01111 , SPECIOUS BIZZ (PVT) LTD , CONTI CORTESIA , FK034A , 04/09/0020 , REL_LKSIL , 0094112323829 , ep3@entp-post.com , GYPSUM BOARD , 14 , 18/09/0020
95 , MEDUQ3199377 , TEMU2022030 , 20DV , S01111 , SPECIOUS BIZZ (PVT) LTD , CONTI CORTESIA , FK034A , 04/09/0020 , REL_LKSIL , 0094112323829 , ep3@entp-post.com , GYPSUM BOARD , 14 , 18/09/0020
95 , MEDUQ3199377 , MSCU3561320 , 20DV , S01111 , SPECIOUS BIZZ (PVT) LTD , CONTI CORTESIA , FK034A , 04/09/0020 , REL_LKSIL , 0094112323829 , ep3@entp-post.com , GYPSUM BOARD , 14 , 18/09/0020
95 , MEDUQ3199377 , TGCU0084567 , 20DV , S01111 , SPECIOUS BIZZ (PVT) LTD , CONTI CORTESIA , FK034A , 04/09/0020 , REL_LKSIL , 0094112323829 , ep3@entp-post.com , GYPSUM BOARD , 14 , 18/09/0020
95 , MEDUQ3199377 , MSCU6028510 , 20DV , S01111 , SPECIOUS BIZZ (PVT) LTD , CONTI CORTESIA , FK034A , 04/09/0020 , REL_LKSIL , 0094112323829 , ep3@entp-post.com , GYPSUM BOARD , 14 , 18/09/0020
95 , MEDUQ3199377 , MSCU6438074 , 20DV , S01111 , SPECIOUS BIZZ (PVT) LTD , CONTI CORTESIA , FK034A , 04/09/0020 , REL_LKSIL , 0094112323829 , ep3@entp-post.com , GYPSUM BOARD , 14 , 18/09/0020
95 , MEDUQ3199377 , MEDU3574284 , 20DV , S01111 , SPECIOUS BIZZ (PVT) LTD , CONTI CORTESIA , FK034A , 04/09/0020 , REL_LKSIL , 0094112323829 , ep3@entp-post.com , GYPSUM BOARD , 14 , 18/09/0020
96 , MEDUQ3167408 , CLHU4774882 , 40DV , P00050 , PACKAGES LANKA (PVT) LTD , CONTI CORTESIA , FK034A , 04/09/0020 , REL_LKSIL , 112237540 , shipping@packages.lk , ETHYL ACETATE , 14 , 18/09/0020
96 , MEDUQ3167408 , MSCU5884153 , 40DV , P00050 , PACKAGES LANKA (PVT) LTD , CONTI CORTESIA , FK034A , 04/09/0020 , REL_LKSIL , 112237540 , shipping@packages.lk , ETHYL ACETATE , 14 , 18/09/0020
97 , MEDUQ3167390 , XINU4018293 , 40DV , J00002 , JAYES TRADING COMPANY , CONTI CORTESIA , FK034A , 04/09/0020 , REL_LKSIL , 112338851 , jaychem@sltnet.lk , 23.76MT ETHYL ACETATE , 14 , 18/09/0020
98 , MEDUQ3195946 , TGHU3111746 , 20DV , M00006 , MSA SHIPPING (PVT) LTD , CONTI CORTESIA , FK034A , 04/09/0020 , REL_JCT , 2385289 , impdoc2@msashipping.com , SODA ASH LIGHT , 14 , 18/09/0020
98 , MEDUQ3195946 , MSCU2577317 , 20DV , M00006 , MSA SHIPPING (PVT) LTD , CONTI CORTESIA , FK034A , 04/09/0020 , REL_JCT , 2385289 , impdoc2@msashipping.com , SODA ASH LIGHT , 14 , 18/09/0020
98 , MEDUQ3195946 , MEDU6251325 , 20DV , M00006 , MSA SHIPPING (PVT) LTD , CONTI CORTESIA , FK034A , 04/09/0020 , REL_JCT , 2385289 , impdoc2@msashipping.com , SODA ASH LIGHT , 14 , 18/09/0020
98 , MEDUQ3195946 , FSCU3594501 , 20DV , M00006 , MSA SHIPPING (PVT) LTD , CONTI CORTESIA , FK034A , 04/09/0020 , REL_JCT , 2385289 , impdoc2@msashipping.com , SODA ASH LIGHT , 14 , 18/09/0020
98 , MEDUQ3195946 , GLDU9459347 , 20DV , M00006 , MSA SHIPPING (PVT) LTD , CONTI CORTESIA , FK034A , 04/09/0020 , REL_JCT , 2385289 , impdoc2@msashipping.com , SODA ASH LIGHT , 14 , 18/09/0020
98 , MEDUQ3195946 , CXDU1404179 , 20DV , M00006 , MSA SHIPPING (PVT) LTD , CONTI CORTESIA , FK034A , 04/09/0020 , REL_JCT , 2385289 , impdoc2@msashipping.com , SODA ASH LIGHT , 14 , 18/09/0020
98 , MEDUQ3195946 , GLDU2243994 , 20DV , M00006 , MSA SHIPPING (PVT) LTD , CONTI CORTESIA , FK034A , 04/09/0020 , REL_JCT , 2385289 , impdoc2@msashipping.com , SODA ASH LIGHT , 14 , 18/09/0020
98 , MEDUQ3195946 , DFSU2772115 , 20DV , M00006 , MSA SHIPPING (PVT) LTD , CONTI CORTESIA , FK034A , 04/09/0020 , REL_JCT , 2385289 , impdoc2@msashipping.com , SODA ASH LIGHT , 14 , 18/09/0020
98 , MEDUQ3195946 , MEDU1870271 , 20DV , M00006 , MSA SHIPPING (PVT) LTD , CONTI CORTESIA , FK034A , 04/09/0020 , REL_JCT , 2385289 , impdoc2@msashipping.com , SODA ASH LIGHT , 14 , 18/09/0020
98 , MEDUQ3195946 , TGHU3212649 , 20DV , M00006 , MSA SHIPPING (PVT) LTD , CONTI CORTESIA , FK034A , 04/09/0020 , REL_JCT , 2385289 , impdoc2@msashipping.com , SODA ASH LIGHT , 14 , 18/09/0020
98 , MEDUQ3195946 , MSCU3988945 , 20DV , M00006 , MSA SHIPPING (PVT) LTD , CONTI CORTESIA , FK034A , 04/09/0020 , REL_JCT , 2385289 , impdoc2@msashipping.com , SODA ASH LIGHT , 14 , 18/09/0020
98 , MEDUQ3195946 , MSCU3816530 , 20DV , M00006 , MSA SHIPPING (PVT) LTD , CONTI CORTESIA , FK034A , 04/09/0020 , REL_JCT , 2385289 , impdoc2@msashipping.com , SODA ASH LIGHT , 14 , 18/09/0020
98 , MEDUQ3195946 , TEMU2015073 , 20DV , M00006 , MSA SHIPPING (PVT) LTD , CONTI CORTESIA , FK034A , 04/09/0020 , REL_JCT , 2385289 , impdoc2@msashipping.com , SODA ASH LIGHT , 14 , 18/09/0020
99 , MEDUQ3200407 , INKU6511490 , 40HC , T00519 , THE REAL COMMERCIAL TRADING COMPANY PVT LTD , CONTI CORTESIA , FK034A , 04/09/0020 , REL_LKTAL , 94723470167 , realcommercial@gmai.com , CEILING T GRID , 14 , 18/09/0020
99 , MEDUQ3200407 , FBLU0171829 , 40HC , T00519 , THE REAL COMMERCIAL TRADING COMPANY PVT LTD , CONTI CORTESIA , FK034A , 04/09/0020 , REL_LKTAL , 94723470167 , realcommercial@gmai.com , CEILING T GRID , 14 , 18/09/0020
